<?xml version="1.0" encoding="UTF-8" standalone="no"?>
<!-- Created with Inkscape (http://www.inkscape.org/) -->

<svg
   xmlns:dc="http://purl.org/dc/elements/1.1/"
   xmlns:cc="http://creativecommons.org/ns#"
   xmlns:rdf="http://www.w3.org/1999/02/22-rdf-syntax-ns#"
   xmlns:svg="http://www.w3.org/2000/svg"
   xmlns="http://www.w3.org/2000/svg"
   xmlns:sodipodi="http://sodipodi.sourceforge.net/DTD/sodipodi-0.dtd"
   xmlns:inkscape="http://www.inkscape.org/namespaces/inkscape"
   width="296.93582mm"
   height="134.13986mm"
   viewBox="0 0 296.93582 134.13986"
   version="1.1"
   id="svg4769"
   inkscape:version="0.92.4 (5da689c313, 2019-01-14)"
   sodipodi:docname="SLC_arrows.svg">
  <defs
     id="defs4763">
    <clipPath
       id="clip0">
      <rect
         id="rect5325"
         height="503"
         width="1132"
         y="140"
         x="85" />
    </clipPath>
    <clipPath
       id="clip1">
      <rect
         id="rect5328"
         height="77"
         width="76"
         y="181"
         x="572" />
    </clipPath>
    <clipPath
       id="clip2">
      <rect
         id="rect5331"
         height="77"
         width="76"
         y="181"
         x="572" />
    </clipPath>
    <clipPath
       id="clip3">
      <rect
         id="rect5334"
         height="77"
         width="76"
         y="181"
         x="572" />
    </clipPath>
    <clipPath
       id="clip4">
      <rect
         id="rect5337"
         height="53"
         width="45"
         y="243"
         x="422" />
    </clipPath>
    <clipPath
       id="clip5">
      <rect
         id="rect5340"
         height="53"
         width="45"
         y="243"
         x="422" />
    </clipPath>
    <clipPath
       id="clip6">
      <rect
         id="rect5343"
         height="53"
         width="45"
         y="243"
         x="422" />
    </clipPath>
    <clipPath
       id="clip7">
      <rect
         id="rect5346"
         height="47"
         width="43"
         y="322"
         x="277" />
    </clipPath>
    <clipPath
       id="clip8">
      <rect
         id="rect5349"
         height="47"
         width="43"
         y="322"
         x="277" />
    </clipPath>
    <clipPath
       id="clip9">
      <rect
         id="rect5352"
         height="47"
         width="43"
         y="322"
         x="277" />
    </clipPath>
    <clipPath
       id="clip10">
      <rect
         id="rect5355"
         height="32"
         width="26"
         y="428"
         x="156" />
    </clipPath>
    <clipPath
       id="clip11">
      <rect
         id="rect5358"
         height="32"
         width="26"
         y="428"
         x="156" />
    </clipPath>
    <clipPath
       id="clip12">
      <rect
         id="rect5361"
         height="32"
         width="26"
         y="428"
         x="156" />
    </clipPath>
  </defs>
  <sodipodi:namedview
     id="base"
     pagecolor="#ffffff"
     bordercolor="#666666"
     borderopacity="1.0"
     inkscape:pageopacity="0.0"
     inkscape:pageshadow="2"
     inkscape:zoom="0.49497475"
     inkscape:cx="498.80021"
     inkscape:cy="257.46621"
     inkscape:document-units="mm"
     inkscape:current-layer="layer1"
     showgrid="false"
     fit-margin-top="2"
     fit-margin-left="2"
     fit-margin-right="2"
     fit-margin-bottom="2"
     inkscape:window-width="1280"
     inkscape:window-height="657"
     inkscape:window-x="-8"
     inkscape:window-y="-8"
     inkscape:window-maximized="1" />
  <metadata
     id="metadata4766">
    <rdf:RDF>
      <cc:Work
         rdf:about="">
        <dc:format>image/svg+xml</dc:format>
        <dc:type
           rdf:resource="http://purl.org/dc/dcmitype/StillImage" />
        <dc:title></dc:title>
      </cc:Work>
    </rdf:RDF>
  </metadata>
  <g
     inkscape:label="Layer 1"
     inkscape:groupmode="layer"
     id="layer1"
     transform="translate(38.085588,-91.751725)">
    <path
       style="fill:#595959;fill-rule:evenodd;stroke-width:0.26458332"
       inkscape:connector-curvature="0"
       d="M 130.14831,120.42543 C 67.66034,122.77122 0.24424334,154.68738 -36.085588,201.19902 -7.8239607,148.5046 68.584001,104.15064 130.20678,102.25623 c 0.2204,8.9998 -0.17568,10.58783 -0.0585,18.1692 z"
       id="path5366" />
    <path
       style="fill:#595959;fill-rule:evenodd;stroke-width:0.26458332"
       inkscape:connector-curvature="0"
       d="m 145.71216,111.71244 -17.96045,17.96044 V 93.751725 Z"
       id="path5368" />
    <path
       style="fill:#fba200;fill-opacity:0.70196096;fill-rule:evenodd;stroke:#595959;stroke-width:0.35277691;stroke-miterlimit:8"
       inkscape:connector-curvature="0"
       d="m 89.931907,114.38922 c 0,-7.16015 5.804429,-12.96458 12.964583,-12.96458 7.16015,0 12.96458,5.80443 12.96458,12.96458 0,7.16016 -5.80443,12.96459 -12.96458,12.96459 -7.160154,0 -12.964583,-5.80443 -12.964583,-12.96459 z"
       stroke-miterlimit="8"
       id="path5370" />
    <path
       style="fill:#90c221;fill-opacity:0.70196096;fill-rule:evenodd;stroke:#595959;stroke-width:0.35277691;stroke-miterlimit:8"
       inkscape:connector-curvature="0"
       d="m 48.656907,127.75068 c 0,-5.77188 4.679157,-10.45104 10.451042,-10.45104 5.771885,0 10.451041,4.67916 10.451041,10.45104 0,5.77189 -4.679156,10.45104 -10.451041,10.45104 -5.771885,0 -10.451042,-4.67915 -10.451042,-10.45104 z"
       stroke-miterlimit="8"
       id="path5372" />
    <path
       style="fill:#07a398;fill-opacity:0.81960796;fill-rule:evenodd;stroke:#595959;stroke-width:0.35277691;stroke-miterlimit:8"
       inkscape:connector-curvature="0"
       d="m 12.144408,148.1236 c 0,-4.45691 3.612885,-8.06979 8.069791,-8.06979 4.456907,0 8.069792,3.61288 8.069792,8.06979 0,4.45691 -3.612885,8.06979 -8.069792,8.06979 -4.456906,0 -8.069791,-3.61288 -8.069791,-8.06979 z"
       stroke-miterlimit="8"
       id="path5374" />
    <path
       style="fill:#0680c3;fill-opacity:0.70196096;fill-rule:evenodd;stroke:#595959;stroke-width:0.35277691;stroke-miterlimit:8"
       inkscape:connector-curvature="0"
       d="m -19.076425,174.58193 c 0,-2.99561 2.428346,-5.42396 5.423958,-5.42396 2.995613,0 5.4239584,2.42835 5.4239584,5.42396 0,2.99561 -2.4283454,5.42396 -5.4239584,5.42396 -2.995612,0 -5.423958,-2.42835 -5.423958,-5.42396 z"
       stroke-miterlimit="8"
       id="path5376" />
    <text
       style="font-weight:400;font-size:4.23333311px;font-family:Arial, Arial_MSFontService, sans-serif;fill:#404040;stroke-width:0.26458332"
       font-weight="400"
       font-size="16"
       id="text5420"
       x="169.21114"
       y="140.1861">Compare the economic and financial results of <tspan
   style="font-size:4.23333311px;stroke-width:0.26458332"
   font-size="16"
   x="169.21114"
   y="145.21318"
   id="tspan5378">the project against reference values from wave</tspan>
<tspan
   style="font-size:4.23333311px;stroke-width:0.26458332"
   font-size="16"
   x="169.21114"
   y="150.24026"
   id="tspan5380">and tidal projects.</tspan>
<tspan
   style="font-weight:700;font-size:4.23333311px;fill:#fba200;stroke-width:0.26458332"
   font-weight="700"
   font-size="16"
   x="169.21117"
   y="134.36526"
   id="tspan5382">Benchmark analysis</tspan>
<tspan
   style="font-size:4.23333311px;stroke-width:0.26458332"
   font-size="16"
   x="129.87341"
   y="161.35277"
   id="tspan5384">Evaluate financial attractiveness of the project</tspan>
<tspan
   style="font-size:4.23333311px;stroke-width:0.26458332"
   font-size="16"
   x="129.87341"
   y="166.37985"
   id="tspan5386">from the perspective of the investor, assessing</tspan>
<tspan
   style="font-size:4.23333311px;stroke-width:0.26458332"
   font-size="16"
   x="129.87341"
   y="171.40694"
   id="tspan5388">project profitability.</tspan>
<tspan
   style="font-weight:700;font-size:4.23333311px;fill:#90c221;stroke-width:0.26458332"
   font-weight="700"
   font-size="16"
   x="129.87341"
   y="155.26735"
   id="tspan5390">Financial assessment</tspan>
<tspan
   style="font-size:4.23333311px;stroke-width:0.26458332"
   font-size="16"
   x="90.53569"
   y="183.84235"
   id="tspan5392">Perform a techno</tspan>
<tspan
   style="font-size:4.23333311px;stroke-width:0.26458332"
   font-size="16"
   x="122.94714"
   y="183.84235"
   id="tspan5394">-</tspan>
<tspan
   style="font-size:4.23333311px;stroke-width:0.26458332"
   font-size="16"
   x="124.35817"
   y="183.84235"
   id="tspan5396">economic assessment,</tspan>
<tspan
   style="font-size:4.23333311px;stroke-width:0.26458332"
   font-size="16"
   x="90.53569"
   y="188.86943"
   id="tspan5398">estimating the LCOE of the farm, or using other</tspan>
<tspan
   style="font-size:4.23333311px;stroke-width:0.26458332"
   font-size="16"
   x="90.53569"
   y="193.89651"
   id="tspan5400">alternative metrics for early</tspan>
<tspan
   style="font-size:4.23333311px;stroke-width:0.26458332"
   font-size="16"
   x="141.24759"
   y="193.89651"
   id="tspan5402">-</tspan>
<tspan
   style="font-size:4.23333311px;stroke-width:0.26458332"
   font-size="16"
   x="142.6586"
   y="193.89651"
   id="tspan5404">stage technologies.</tspan>
<tspan
   style="font-weight:700;font-size:4.23333311px;fill:#07a398;stroke-width:0.26458332"
   font-weight="700"
   font-size="16"
   x="90.53569"
   y="178.02151"
   id="tspan5406">Economic assessment</tspan>
<tspan
   style="font-size:4.23333311px;stroke-width:0.26458332"
   font-size="16"
   x="51.197971"
   y="207.91943"
   id="tspan5408">Compile</tspan>
an<tspan
   style="font-size:4.23333311px;stroke-width:0.26458332"
   font-size="16"
   x="73.687553"
   y="207.91943"
   id="tspan5410">inventory of materials, assemblies, and</tspan>
<tspan
   style="font-size:4.23333311px;stroke-width:0.26458332"
   font-size="16"
   x="51.197971"
   y="212.94652"
   id="tspan5412">components, including the quantities of each, as well</tspan>
<tspan
   style="font-size:4.23333311px;stroke-width:0.26458332"
   font-size="16"
   x="51.197971"
   y="217.9736"
   id="tspan5414">as the installation operations required to construct a</tspan>
<tspan
   style="font-size:4.23333311px;stroke-width:0.26458332"
   font-size="16"
   x="51.197971"
   y="223.00069"
   id="tspan5416">given ocean energy farm.</tspan>
<tspan
   style="font-weight:700;font-size:4.23333311px;fill:#0680c3;stroke-width:0.26458332"
   font-weight="700"
   font-size="16"
   x="51.197971"
   y="201.56943"
   id="tspan5418">Compile Bill of Materials (BOM)</tspan>
</text>
    <path
       style="fill:#595959;stroke-width:0.26458332"
       inkscape:connector-curvature="0"
       d="m 102.54371,127.35381 v 0.70556 h 0.70556 v -0.70556 z m 0,1.41111 v 0.70556 h 0.70556 v -0.70556 z m 0,1.41112 v 0.70554 h 0.70556 v -0.70554 z m 0,1.4111 v 0.70557 h 0.70556 v -0.70557 z m 0,1.41111 v 0.70556 h 0.70556 v -0.70556 z m 0,1.41112 v 0.70554 h 0.70556 v -0.70554 z m 0,1.41111 v 0.70556 h 0.70556 v -0.70556 z m 0,1.4111 v 0.70556 h 0.70556 v -0.70556 z m 0,1.41113 v 0.70554 h 0.70556 v -0.70554 z m 0,1.4111 v 0.70556 h 0.70556 v -0.70556 z m 0,1.4111 v 0.70557 h 0.70556 v -0.70557 z m 0,1.41113 v 0.70554 h 0.70556 v -0.70554 z m 0.71131,1.40536 h 0.70555 v -0.70556 h -0.70555 z m 1.41111,0 h 0.70556 v -0.70556 h -0.70556 z m 1.4111,0 h 0.70557 v -0.70556 h -0.70557 z m 1.41113,0 h 0.70554 v -0.70556 h -0.70554 z m 1.4111,0 h 0.70557 v -0.70556 h -0.70557 z m 1.4111,0 h 0.70557 v -0.70556 h -0.70557 z m 1.41113,0 h 0.70554 v -0.70556 h -0.70554 z m 1.41111,0 h 0.70556 v -0.70556 h -0.70556 z m 1.4111,0 h 0.70556 v -0.70556 h -0.70556 z m 1.41113,0 h 0.70553 v -0.70556 h -0.70553 z m 1.4111,0 h 0.70556 v -0.70556 h -0.70556 z m 1.4111,0 h 0.70557 v -0.70556 h -0.70557 z m 1.41113,0 h 0.70554 v -0.70556 h -0.70554 z m 1.4111,0 h 0.70557 v -0.70556 h -0.70557 z m 1.4111,0 h 0.70557 v -0.70556 h -0.70557 z m 1.41113,0 h 0.70554 v -0.70556 h -0.70554 z m 1.41111,0 h 0.70556 v -0.70556 h -0.70556 z m 1.4111,0 h 0.70556 v -0.70556 h -0.70556 z m 1.41113,0 h 0.70561 v -0.70556 h -0.70561 z m 1.41099,0 h 0.70565 v -0.70556 h -0.70565 z m 1.41129,0 h 0.70538 v -0.70556 h -0.70538 z m 1.41102,0 h 0.70565 v -0.70556 h -0.70565 z m 1.41103,0 h 0.70564 v -0.70556 h -0.70564 z m 1.41128,0 h 0.70538 v -0.70556 h -0.70538 z m 1.41103,0 h 0.70564 v -0.70556 h -0.70564 z m 1.41102,0 h 0.70564 v -0.70556 h -0.70564 z m 1.41129,0 h 0.70538 v -0.70556 h -0.70538 z m 1.41102,0 h 0.70564 v -0.70556 H 141.355 Z m 1.41102,0 h 0.70565 v -0.70556 h -0.70565 z m 1.41129,0 h 0.70538 v -0.70556 h -0.70538 z m 1.41102,0 h 0.70565 v -0.70556 h -0.70565 z m 1.41103,0 h 0.70564 v -0.70556 h -0.70564 z m 1.41128,0 h 0.70538 v -0.70556 h -0.70538 z m 1.41103,0 h 0.70564 v -0.70556 h -0.70564 z m 1.41102,0 h 0.70564 v -0.70556 h -0.70564 z m 1.41129,0 h 0.70538 v -0.70556 h -0.70538 z m 1.41102,0 h 0.70564 v -0.70556 H 154.055 Z m 1.41102,0 h 0.70565 v -0.70556 h -0.70565 z m 1.41129,0 h 0.70538 v -0.70556 h -0.70538 z m 1.41102,0 h 0.70565 v -0.70556 h -0.70565 z m 1.41103,0 h 0.70564 v -0.70556 h -0.70564 z m 1.41128,0 h 0.70538 v -0.70556 h -0.70538 z m 1.41103,0 h 0.70564 v -0.70556 h -0.70564 z m 1.41102,0 h 0.70564 v -0.70556 h -0.70564 z m 0.75142,0.70554 2.11666,-1.05833 -2.11666,-1.05834 z"
       id="path5422" />
    <path
       style="fill:#595959;stroke-width:0.26458332"
       inkscape:connector-curvature="0"
       d="m 58.62288,138.20172 v 0.70556 h 0.705554 v -0.70556 z m 0,1.41111 v 0.70556 h 0.705554 v -0.70556 z m 0,1.41112 v 0.70554 h 0.705554 v -0.70554 z m 0,1.4111 v 0.70557 h 0.705554 v -0.70557 z m 0,1.41111 v 0.70556 h 0.705554 v -0.70556 z m 0,1.41112 v 0.70554 h 0.705554 v -0.70554 z m 0,1.41111 v 0.70556 h 0.705554 v -0.70556 z m 0,1.4111 v 0.70556 h 0.705554 v -0.70556 z m 0,1.41113 v 0.70554 h 0.705554 v -0.70554 z m 0,1.4111 v 0.70556 h 0.705554 v -0.70556 z m 0,1.4111 v 0.70557 h 0.705554 v -0.70557 z m 0,1.41113 v 0.70554 h 0.705554 v -0.70554 z m 0,1.4111 v 0.70557 h 0.705554 v -0.70557 z m 0,1.41111 v 0.70556 h 0.705554 v -0.70556 z m 0,1.41112 v 0.70554 h 0.705554 v -0.70554 z m 0,1.41111 v 0.70556 h 0.705554 v -0.70556 z m 0,1.4111 v 0.70556 h 0.705554 v -0.70556 z m 0,1.41113 v 0.70554 h 0.705554 v -0.70554 z m 0,1.4111 v 0.70556 h 0.705554 v -0.70556 z m 0.534055,1.58274 h 0.705555 v -0.7057 h -0.705555 z m 1.411111,0 H 61.2736 v -0.7057 h -0.705554 z m 1.411108,0 h 0.705564 v -0.7057 h -0.705564 z m 1.411102,0 h 0.705565 v -0.7057 h -0.705565 z m 1.411129,0 h 0.705538 v -0.7057 h -0.705538 z m 1.411102,0 h 0.705565 v -0.7057 h -0.705565 z m 1.411103,0 h 0.705564 v -0.7057 H 67.62359 Z m 1.411128,0 h 0.705538 v -0.7057 h -0.705538 z m 1.411103,0 h 0.705564 v -0.7057 h -0.705564 z m 1.411102,0 h 0.705564 v -0.7057 h -0.705564 z m 1.411129,0 h 0.705538 v -0.7057 h -0.705538 z m 1.411102,0 h 0.705564 v -0.7057 h -0.705564 z m 1.411102,0 h 0.705565 v -0.7057 h -0.705565 z m 1.411129,0 h 0.705538 v -0.7057 h -0.705538 z m 1.411102,0 h 0.705565 v -0.7057 h -0.705565 z m 1.411102,0 h 0.705565 v -0.7057 h -0.705565 z m 1.411129,0 h 0.705538 v -0.7057 h -0.705538 z m 1.411102,0 h 0.705565 v -0.7057 H 83.14582 Z m 1.411103,0 h 0.705564 v -0.7057 h -0.705564 z m 1.410996,0 h 0.705644 v -0.7057 h -0.705644 z m 1.411288,0 h 0.705379 v -0.7057 h -0.705379 z m 1.411023,0 h 0.705643 v -0.7057 H 88.79023 Z m 1.411022,0 h 0.705644 v -0.7057 h -0.705644 z m 1.411288,0 h 0.705379 v -0.7057 H 91.61254 Z m 1.411023,0 h 0.705644 v -0.7057 h -0.705644 z m 1.411023,0 h 0.705643 v -0.7057 h -0.705643 z m 1.411287,0 h 0.705379 v -0.7057 h -0.705379 z m 1.411023,0 h 0.705644 v -0.7057 h -0.705644 z m 1.411023,0 h 0.705644 v -0.7057 h -0.705644 z m 1.411291,0 h 0.70538 v -0.7057 h -0.70538 z m 1.41102,0 h 0.70564 v -0.7057 h -0.70564 z m 1.41102,0 h 0.70565 v -0.7057 h -0.70565 z m 1.41129,0 h 0.70538 v -0.7057 h -0.70538 z m 1.41102,0 h 0.70565 v -0.7057 h -0.70565 z m 1.41103,0 h 0.70564 v -0.7057 h -0.70564 z m 1.41128,0 h 0.70538 v -0.7057 h -0.70538 z m 1.41103,0 h 0.70564 v -0.7057 h -0.70564 z m 1.41102,0 h 0.70564 v -0.7057 h -0.70564 z m 1.41129,0 h 0.70538 v -0.7057 h -0.70538 z m 1.41102,0 h 0.70564 v -0.7057 h -0.70564 z m 1.41102,0 h 0.70565 v -0.7057 h -0.70565 z m 1.41129,0 h 0.70538 v -0.7057 h -0.70538 z m 1.41102,0 h 0.70565 v -0.7057 h -0.70565 z m 1.41103,0 h 0.70564 v -0.7057 h -0.70564 z m 1.41128,0 h 0.70538 v -0.7057 h -0.70538 z m 1.41103,0 h 0.70564 v -0.7057 h -0.70564 z m 1.41102,0 h 0.70564 v -0.7057 h -0.70564 z m 1.41129,0 h 0.14922 v -0.7057 h -0.14922 z m -0.20373,0.70538 2.11666,-1.05834 -2.11666,-1.05828 z"
       id="path5424" />
    <path
       style="fill:#595959;stroke-width:0.26458332"
       inkscape:connector-curvature="0"
       d="m 19.729131,156.19339 v 0.70556 h 0.705554 v -0.70556 z m 0,1.41111 v 0.70556 h 0.705554 v -0.70556 z m 0,1.41112 v 0.70554 h 0.705554 v -0.70554 z m 0,1.4111 v 0.70557 h 0.705554 v -0.70557 z m 0,1.41111 v 0.70556 h 0.705554 v -0.70556 z m 0,1.41112 v 0.70554 h 0.705554 v -0.70554 z m 0,1.41111 v 0.70556 h 0.705554 v -0.70556 z m 0,1.4111 v 0.70556 h 0.705554 v -0.70556 z m 0,1.41113 v 0.70554 h 0.705554 v -0.70554 z m 0,1.4111 v 0.70556 h 0.705554 v -0.70556 z m 0,1.4111 v 0.70557 h 0.705554 v -0.70557 z m 0,1.41113 v 0.70554 h 0.705554 v -0.70554 z m 0,1.4111 v 0.70557 h 0.705554 v -0.70557 z m 0,1.41111 v 0.70556 h 0.705554 v -0.70556 z m 0,1.41112 v 0.70554 h 0.705554 v -0.70554 z m 0,1.41111 v 0.70556 h 0.705554 v -0.70556 z m 0,1.4111 v 0.70556 h 0.705554 v -0.70556 z m 0,1.41113 v 0.70554 h 0.705554 v -0.70554 z m 0,1.4111 v 0.70556 h 0.705554 v -0.70556 z m 0,1.41102 v 0.70565 h 0.705554 v -0.70565 z m 0,1.41129 v 0.70538 h 0.705554 v -0.70538 z m 0,1.41102 v 0.70565 h 0.705554 v -0.70565 z m 0,1.41103 v 0.51726 h 0.893943 v -0.70565 h -0.541166 l 0.352777,0.35296 v -0.16457 z m 1.599499,0.51726 h 0.705556 v -0.70565 H 21.32863 Z m 1.411123,0 h 0.705538 v -0.70565 h -0.705538 z m 1.411103,0 h 0.705564 v -0.70565 h -0.705564 z m 1.411102,0 h 0.705564 v -0.70565 h -0.705564 z m 1.411129,0 h 0.705538 v -0.70565 h -0.705538 z m 1.411102,0 h 0.705564 v -0.70565 h -0.705564 z m 1.411102,0 h 0.705565 v -0.70565 h -0.705565 z m 1.411129,0 h 0.705538 v -0.70565 H 31.20642 Z m 1.411102,0 h 0.705565 v -0.70565 h -0.705565 z m 1.411102,0 h 0.705565 v -0.70565 h -0.705565 z m 1.411129,0 h 0.705538 v -0.70565 h -0.705538 z m 1.411102,0 h 0.705538 v -0.70565 h -0.705538 z m 1.411103,0 h 0.705564 v -0.70565 h -0.705564 z m 1.411102,0 h 0.705564 v -0.70565 H 39.67306 Z m 1.411129,0 h 0.705538 v -0.70565 h -0.705538 z m 1.411102,0 h 0.705564 v -0.70565 h -0.705564 z m 1.411102,0 h 0.705565 v -0.70565 h -0.705565 z m 1.411129,0 h 0.705538 v -0.70565 h -0.705538 z m 1.411102,0 h 0.705644 v -0.70565 h -0.705644 z m 1.411023,0 h 0.705644 v -0.70565 h -0.705644 z m 1.411288,0 h 0.705379 v -0.70565 h -0.705379 z m 1.411023,0 h 0.705643 v -0.70565 h -0.705643 z m 1.411023,0 h 0.705643 v -0.70565 h -0.705643 z m 1.411287,0 h 0.705379 v -0.70565 h -0.705379 z m 1.411023,0 h 0.705644 v -0.70565 h -0.705644 z m 1.411023,0 h 0.705644 v -0.70565 h -0.705644 z m 1.411287,0 h 0.705379 v -0.70565 h -0.705379 z m 1.411023,0 h 0.705644 v -0.70565 h -0.705644 z m 1.411023,0 h 0.705644 v -0.70565 h -0.705644 z m 1.411288,0 h 0.705379 v -0.70565 h -0.705379 z m 1.411022,0 h 0.705644 v -0.70565 h -0.705644 z m 1.411023,0 h 0.705644 v -0.70565 H 65.07298 Z m 1.411288,0 h 0.705379 v -0.70565 h -0.705379 z m 1.411023,0 h 0.705643 v -0.70565 h -0.705643 z m 1.411023,0 h 0.705643 v -0.70565 h -0.705643 z m 1.411287,0 h 0.705379 v -0.70565 h -0.705379 z m 1.411023,0 h 0.705644 v -0.70565 h -0.705644 z m 1.411023,0 h 0.705644 v -0.70565 h -0.705644 z m 1.411287,0 h 0.70538 v -0.70565 h -0.70538 z m 1.411023,0 h 0.705644 v -0.70565 h -0.705644 z m 1.411023,0 h 0.705644 v -0.70565 H 77.77298 Z m 1.411288,0 h 0.705379 v -0.70565 h -0.705379 z m 1.411023,0 h 0.705643 v -0.70565 h -0.705643 z m 1.411022,0 h 0.705644 v -0.70565 h -0.705644 z m 1.411288,0 h 0.705379 v -0.70565 h -0.705379 z m 1.411023,0 h 0.705644 v -0.70565 h -0.705644 z m 1.411023,0 h 0.0058 v -0.70565 h -0.0058 z m -0.346869,0.70564 2.116667,-1.05833 -2.116667,-1.05834 z"
       id="path5426" />
    <path
       style="fill:#595959;stroke-width:0.26458332"
       inkscape:connector-curvature="0"
       d="m -13.872952,180.00589 v 0.70556 h 0.705554 v -0.70556 z m 0,1.41111 v 0.70556 h 0.705554 V 181.417 Z m 0,1.41112 v 0.70554 h 0.705554 v -0.70554 z m 0,1.4111 v 0.70557 h 0.705554 v -0.70557 z m 0,1.41111 v 0.70556 h 0.705554 v -0.70556 z m 0,1.41112 v 0.70554 h 0.705554 v -0.70554 z m 0,1.41111 v 0.70556 h 0.705554 v -0.70556 z m 0,1.4111 v 0.70556 h 0.705554 v -0.70556 z m 0,1.41113 v 0.70554 h 0.705554 v -0.70554 z m 0,1.4111 v 0.70556 h 0.705554 v -0.70556 z m 0,1.4111 v 0.70557 h 0.705554 v -0.70557 z m 0,1.41113 v 0.70554 h 0.705554 v -0.70554 z m 0,1.4111 v 0.70557 h 0.705554 v -0.70557 z m 0,1.41111 v 0.70556 h 0.705554 v -0.70556 z m 0,1.41112 v 0.70554 h 0.705554 v -0.70554 z m 0,1.41111 v 0.70556 h 0.705554 v -0.70556 z m 0,1.4111 v 0.70556 h 0.705554 v -0.70556 z m 0,1.41113 v 0.70554 h 0.705554 v -0.70554 z m 0,1.4111 v 0.70556 h 0.705554 v -0.70556 z m 0,1.41102 v 0.70565 h 0.705554 v -0.70565 z m 0,1.41129 v 0.70538 h 0.705554 v -0.70538 z m 0,1.41102 v 0.70565 h 0.705554 v -0.70565 z m 0,1.41103 v 0.70564 h 0.705554 v -0.70564 z m 0,1.41128 v 0.70538 h 0.705554 v -0.70538 z m 0,1.41103 v 0.64531 h 0.765887 v -0.70564 h -0.41311 l 0.352777,0.35269 v -0.29236 z m 1.471443,0.64531 h 0.705557 v -0.70564 h -0.705557 z m 1.41111,0 h 0.705549 v -0.70564 h -0.705549 z m 1.4111133,0 h 0.7055644 v -0.70564 h -0.7055644 z m 1.4111023,0 h 0.7055644 v -0.70564 h -0.7055644 z m 1.4111287,0 h 0.7055379 v -0.70564 h -0.7055379 z m 1.4111023,0 h 0.7055644 v -0.70564 h -0.7055644 z m 1.4111023,0 h 0.7055643 v -0.70564 h -0.7055643 z m 1.4111287,0 h 0.7055379 v -0.70564 h -0.7055379 z m 1.4111023,0 h 0.70556435 v -0.70564 H -1.1126191 Z m 1.41110226,0 H 1.0040475 v -0.70564 H 0.29848316 Z m 1.41112874,0 h 0.7055379 v -0.70564 H 1.7096119 Z m 1.4111023,0 h 0.7055643 v -0.70564 H 3.1207142 Z m 1.4111022,0 h 0.7055644 v -0.70564 H 4.5318164 Z m 1.4111288,0 h 0.7055379 v -0.70564 H 5.9429452 Z m 1.4111022,0 h 0.7055644 v -0.70564 H 7.3540474 Z m 1.4111023,0 h 0.7055644 v -0.70564 H 8.7651497 Z m 1.4111283,0 h 0.705538 v -0.70564 h -0.705538 z m 1.411103,0 h 0.705564 v -0.70564 h -0.705564 z m 1.411102,0 h 0.705644 v -0.70564 h -0.705644 z m 1.411023,0 h 0.705644 v -0.70564 h -0.705644 z m 1.411287,0 h 0.70538 v -0.70564 h -0.70538 z m 1.411023,0 h 0.705644 v -0.70564 h -0.705644 z m 1.411023,0 h 0.705644 v -0.70564 h -0.705644 z m 1.411288,0 h 0.705379 v -0.70564 h -0.705379 z m 1.411023,0 h 0.705643 v -0.70564 H 21.46515 Z m 1.411022,0 h 0.705644 v -0.70564 h -0.705644 z m 1.411288,0 h 0.705379 v -0.70564 H 24.28746 Z m 1.411023,0 h 0.705644 v -0.70564 h -0.705644 z m 1.411023,0 h 0.705643 v -0.70564 h -0.705643 z m 1.411287,0 h 0.705379 v -0.70564 h -0.705379 z m 1.411023,0 h 0.705644 v -0.70564 h -0.705644 z m 1.411023,0 h 0.705644 v -0.70564 h -0.705644 z m 1.411288,0 h 0.705379 v -0.70564 h -0.705379 z m 1.411022,0 h 0.705644 v -0.70564 h -0.705644 z m 1.411023,0 h 0.705644 v -0.70564 h -0.705644 z m 1.411288,0 h 0.705379 v -0.70564 H 36.98746 Z m 1.411023,0 h 0.705643 v -0.70564 h -0.705643 z m 1.411023,0 h 0.705643 v -0.70564 h -0.705643 z m 1.411287,0 h 0.705379 v -0.70564 h -0.705379 z m 1.411023,0 h 0.705644 v -0.70564 h -0.705644 z m 1.411023,0 h 0.705644 v -0.70564 h -0.705644 z m 1.411287,0 h 0.705379 v -0.70564 h -0.705379 z m 1.411023,0 h 0.28919 v -0.70564 h -0.28919 z m -0.06376,0.70538 2.116666,-1.05833 -2.116666,-1.05833 z"
       id="path5428" />
    <path
       id="path5430"
       d="m 110.80753,114.65384 c 0,4.50068 -3.60111,8.14918 -8.04333,8.14918 -4.442224,0 -8.043335,-3.6485 -8.043335,-8.14918 0,-4.50068 3.601111,-8.14918 8.043335,-8.14918 4.44222,0 8.04333,3.6485 8.04333,8.14918 z"
       inkscape:connector-curvature="0"
       style="fill:none;fill-rule:evenodd;stroke:#000000;stroke-width:0.75900799" />
    <path
       id="path5432"
       d="m 108.29399,114.65384 c 0,3.09422 -2.47576,5.60256 -5.52979,5.60256 -3.054034,0 -5.529793,-2.50834 -5.529793,-5.60256 0,-3.09422 2.475759,-5.60256 5.529793,-5.60256 3.05403,0 5.52979,2.50834 5.52979,5.60256 z"
       inkscape:connector-curvature="0"
       style="fill:none;fill-rule:evenodd;stroke:#000000;stroke-width:0.75900799" />
    <path
       id="path5434"
       d="m 105.78045,114.65384 c 0,1.68774 -1.35044,3.05594 -3.01625,3.05594 -1.66582,0 -3.016252,-1.3682 -3.016252,-3.05594 0,-1.68774 1.350432,-3.05594 3.016252,-3.05594 1.66581,0 3.01625,1.3682 3.01625,3.05594 z"
       inkscape:connector-curvature="0"
       style="fill:none;fill-rule:evenodd;stroke:#000000;stroke-width:0.75900799" />
    <path
       id="path5436"
       d="m 102.7642,104.46736 c 0.20823,0 0.37703,0.17103 0.37703,0.38199 v 19.60898 c 0,0.21096 -0.1688,0.38199 -0.37703,0.38199 v 0 c -0.20823,0 -0.37703,-0.17103 -0.37703,-0.38199 v -19.60898 c 0,-0.21096 0.1688,-0.38199 0.37703,-0.38199 z"
       inkscape:connector-curvature="0"
       style="fill-rule:evenodd;stroke-width:0.26631859" />
    <path
       id="path5438"
       d="m 112.44133,114.27185 c 0.20823,0 0.37703,0.17102 0.37703,0.38199 v 0 c 0,0.21097 -0.1688,0.38199 -0.37703,0.38199 H 93.087063 c -0.208227,0 -0.377031,-0.17102 -0.377031,-0.38199 v 0 c 0,-0.21097 0.168804,-0.38199 0.377031,-0.38199 z"
       inkscape:connector-curvature="0"
       style="fill-rule:evenodd;stroke-width:0.26631859" />
    <path
       id="path5440"
       d="m 106.53451,110.06992 c 0,0.56259 -0.45013,1.01865 -1.00542,1.01865 -0.55528,0 -1.00541,-0.45606 -1.00541,-1.01865 0,-0.56258 0.45013,-1.01864 1.00541,-1.01864 0.55529,0 1.00542,0.45606 1.00542,1.01864 z"
       inkscape:connector-curvature="0"
       style="fill-rule:evenodd;stroke-width:0.26631859" />
    <path
       id="path5442"
       d="m 101.00472,112.61654 c 0,0.56259 -0.45014,1.01865 -1.005418,1.01865 -0.555281,0 -1.005416,-0.45606 -1.005416,-1.01865 0,-0.56259 0.450135,-1.01864 1.005416,-1.01864 0.555278,0 1.005418,0.45605 1.005418,1.01864 z"
       inkscape:connector-curvature="0"
       style="fill-rule:evenodd;stroke-width:0.26631859" />
    <path
       id="path5444"
       d="m 106.78586,117.32779 c 0,0.35162 -0.28133,0.63666 -0.62838,0.63666 -0.34705,0 -0.62839,-0.28504 -0.62839,-0.63666 0,-0.35162 0.28134,-0.63665 0.62839,-0.63665 0.34705,0 0.62838,0.28503 0.62838,0.63665 z"
       inkscape:connector-curvature="0"
       style="fill-rule:evenodd;stroke-width:0.26631859" />
    <path
       id="path5452"
       d="m 61.335767,127.98978 c -0.16039,-0.16357 -0.460719,-0.4931 -0.595497,-0.69453 -0.31623,-0.47251 0.331761,-0.4183 0.584888,-0.32163 0.382613,0.14629 0.502205,0.17569 0.936598,0.11303 0.373274,-0.0538 0.573352,-0.25288 0.890852,-0.31685 0.653838,-0.13121 0.52197,0.2641 0.188754,0.63848 -0.168831,0.18968 -0.426694,0.458 -0.566235,0.59253 -0.139541,0.13435 -0.160576,0.13435 -0.346763,0.13618 -0.186187,0.002 -0.537527,0.005 -0.7239,0.009 -0.186531,0.004 -0.207751,0.007 -0.368697,-0.1562 z m -5.568315,-7.11822 c 0.854472,0 1.547072,0.69618 1.547072,1.55464 0,0.85864 -0.6926,1.55484 -1.547072,1.55484 -0.854657,0 -1.547468,-0.6962 -1.547468,-1.55484 0,-0.85846 0.692811,-1.55464 1.547468,-1.55464 z m -0.161131,3.62701 h 0.322236 c 0.140282,0 0.254953,0.11542 0.254953,0.2562 v 0 c 0,0.11688 -0.07882,0.21613 -0.185632,0.24647 l 0.216191,1.17805 h 0.258048 l 0.525992,-1.96595 c 0.651298,0.16319 1.774428,0.88824 2.50489,1.18451 l 2.648823,-0.71989 c 0.843491,-0.22661 1.186047,1.06229 0.342556,1.28871 l -2.860596,0.77649 c -0.133509,0.0364 -0.279479,0.0307 -0.417909,-0.0252 l -1.046507,-0.52912 -0.914638,7.70743 c -0.0644,0.54346 -0.445902,0.99521 -0.990362,0.99521 h -0.973349 c -0.54483,0 -0.944086,-0.44973 -0.990362,-0.99521 l -0.335068,-3.95875 c -0.444421,0 -0.780759,-0.28744 -0.869643,-0.81895 -0.13095,-0.78477 -0.143753,-3.85546 0.453022,-4.38862 0.225505,-0.20162 0.58307,-0.36279 1.00225,-0.47308 l 0.514297,1.9224 h 0.257678 l 0.216561,-1.17715 c -0.108453,-0.0298 -0.188754,-0.12956 -0.188754,-0.24737 v 0 c 0,-0.14078 0.114856,-0.2562 0.255323,-0.2562 z m 5.236554,8.85243 c -0.921041,0 -1.491668,-0.62983 -1.491668,-1.55538 v -0.45175 c 0,-1.3104 1.203246,-2.57318 2.193793,-2.9766 0.0084,-9.3e-4 0.01717,-0.001 0.02614,-0.002 l -0.168249,0.53702 c -0.04427,0.14243 0.171371,0.20988 0.215265,0.0674 l 0.194231,-0.61955 0.521229,1.00422 c 0.06768,0.13233 0.267943,0.0283 0.200078,-0.10404 L 62.06898,128.3415 c 0.186901,-0.004 0.389916,-0.006 0.574093,-0.006 1.005549,0.36354 2.278459,1.66107 2.278459,3.00896 v 0.45175 c 0,0.92555 -0.570812,1.55538 -1.491668,1.55538 -1.075955,-0.27661 -1.511221,-0.27661 -2.58699,0 z m 1.293416,-3.16516 c 0.689477,0 1.24841,0.56183 1.24841,1.25489 0,0.69269 -0.558933,1.25414 -1.24841,1.25414 -0.689319,0 -1.248437,-0.56145 -1.248437,-1.25414 0,-0.69306 0.559118,-1.25489 1.248437,-1.25489 z m 0,0.22696 c -0.564595,0 -1.022562,0.4602 -1.022562,1.02793 0,0.56717 0.457967,1.02735 1.022562,1.02735 0.564938,0 1.02272,-0.46018 1.02272,-1.02735 0,-0.56773 -0.457782,-1.02793 -1.02272,-1.02793 z m -0.559673,1.27512 0.27125,-0.0272 c 0.03072,0.17202 0.121603,0.26502 0.299562,0.26502 0.117422,0 0.269954,-0.048 0.269954,-0.19042 0,-0.14868 -0.23831,-0.17588 -0.350044,-0.20398 -0.219842,-0.0553 -0.438758,-0.15237 -0.438758,-0.41703 0,-0.23596 0.185631,-0.35029 0.390657,-0.37951 v -0.15511 h 0.234262 v 0.15548 c 0.222038,0.0311 0.393039,0.15272 0.402008,0.41536 l -0.278739,0.01 c -0.02487,-0.1494 -0.10406,-0.20106 -0.250745,-0.20106 -0.08467,0 -0.231907,0.0254 -0.231907,0.13656 0,0.11964 0.209973,0.1566 0.295936,0.17718 0.267573,0.0634 0.506069,0.14298 0.506069,0.46073 0,0.27423 -0.209789,0.39441 -0.442622,0.42142 v 0.14613 h -0.234262 v -0.14778 c -0.250216,-0.0342 -0.408596,-0.17846 -0.442621,-0.46552 z"
       inkscape:connector-curvature="0"
       style="fill-rule:evenodd;stroke-width:0.26522943" />
    <path
       id="path5460"
       d="m 25.838938,141.7736 h -7.061653 c -0.108286,0 -0.196164,0.0868 -0.196164,0.1943 v 1.36013 h 0.392328 v -1.16582 h 4.514142 l 0.01611,1.18292 c 0.0043,0.31185 0.264009,0.56581 0.579035,0.56581 0.319354,0 0.579276,-0.25726 0.579276,-0.57359 v -0.78654 h -0.392327 v 0.78654 c 0,0.10201 -0.08376,0.18498 -0.186949,0.18498 -0.101607,0 -0.185346,-0.082 -0.186735,-0.18245 l -0.01589,-1.17767 h 1.762668 v 9.71517 h -2.746185 v 0.38862 h 2.942349 c 0.108285,0 0.196164,-0.0869 0.196164,-0.19431 V 141.9679 c 0,-0.10745 -0.08788,-0.1943 -0.196164,-0.1943 z"
       inkscape:connector-curvature="0"
       style="stroke-width:0.26584241" />
    <path
       id="path5462"
       d="m 22.308125,143.71663 h -7.453981 c -0.10828,0 -0.196156,0.0869 -0.196156,0.19431 v 10.10377 c 0,0.10744 0.08788,0.19431 0.196156,0.19431 h 7.453981 c 0.108258,0 0.196137,-0.0869 0.196137,-0.19431 v -10.10377 c 0,-0.10745 -0.08788,-0.19431 -0.196137,-0.19431 z m -0.196164,10.10379 h -7.061658 v -9.71518 h 7.061658 z"
       inkscape:connector-curvature="0"
       style="stroke-width:0.26584241" />
    <path
       id="path5464"
       d="m 16.4234,147.797 c 0.324456,0 0.588465,-0.26152 0.588465,-0.58291 0,-0.11795 -0.03609,-0.22733 -0.09709,-0.31924 l 1.298757,-1.36652 c 0.101207,0.0808 0.227949,0.13134 0.367593,0.13134 0.20618,0 0.387012,-0.10589 0.492172,-0.26522 l 1.117898,0.83336 c -0.02551,0.0651 -0.04081,0.13523 -0.04081,0.20907 0,0.32139 0.264036,0.5829 0.588491,0.5829 0.324429,0 0.588465,-0.26151 0.588465,-0.5829 0,-0.0837 -0.01864,-0.16301 -0.05102,-0.23511 l 0.584565,-0.60155 -0.28268,-0.26951 -0.572758,0.58952 c -0.08043,-0.041 -0.170068,-0.0662 -0.266574,-0.0662 -0.106121,0 -0.204417,0.0301 -0.290532,0.0791 l -1.289328,-0.96123 c -0.05022,-0.27144 -0.289731,-0.47797 -0.577887,-0.47797 -0.324429,0 -0.588464,0.26151 -0.588464,0.5829 0,0.0363 0.0043,0.0715 0.01079,0.10589 l -1.404684,1.47788 c -0.05571,-0.0173 -0.113966,-0.0293 -0.175364,-0.0293 -0.324444,0 -0.588469,0.26152 -0.588469,0.5829 0,0.32139 0.264025,0.58291 0.588469,0.58291 z m 4.315468,-1.55443 c 0.108072,0 0.196137,0.0871 0.196137,0.19431 0,0.10726 -0.08807,0.19431 -0.196137,0.19431 -0.108098,0 -0.196163,-0.0871 -0.196163,-0.19431 0,-0.10726 0.08806,-0.19431 0.196163,-0.19431 z m -2.157747,-1.36012 c 0.108098,0 0.196164,0.0871 0.196164,0.19431 0,0.10727 -0.08807,0.19431 -0.196164,0.19431 -0.108072,0 -0.196137,-0.087 -0.196137,-0.19431 0,-0.10726 0.08807,-0.19431 0.196137,-0.19431 z m -2.157721,2.13733 c 0.108083,0 0.196159,0.0871 0.196159,0.19431 0,0.10727 -0.08808,0.19431 -0.196159,0.19431 -0.108082,0 -0.196155,-0.087 -0.196155,-0.19431 0,-0.10726 0.08807,-0.19431 0.196155,-0.19431 z"
       inkscape:connector-curvature="0"
       style="stroke-width:0.26584241" />
    <path
       id="path5466"
       d="m 17.011865,151.10016 h 0.980792 1.176955 0.980765 1.176956 0.588464 v -0.38859 h -0.3923 v -3.30317 c 0,-0.10744 -0.0879,-0.19431 -0.196164,-0.19431 h -1.176956 c -0.108258,0 -0.196137,0.0869 -0.196137,0.19431 v 3.30317 h -0.588491 v -4.469 c 0,-0.10745 -0.08788,-0.19428 -0.196137,-0.19428 h -1.176955 c -0.108286,0 -0.196164,0.0868 -0.196164,0.19428 v 4.469 h -0.588464 v -2.52595 c 0,-0.10745 -0.08788,-0.19431 -0.196164,-0.19431 h -1.176934 c -0.10828,0 -0.196159,0.0869 -0.196159,0.19431 v 2.52595 h -0.392314 v 0.38859 h 0.588473 z m 3.334676,-3.49745 h 0.784628 v 3.10886 h -0.784628 z m -2.157721,-1.16583 h 0.784629 v 4.27469 H 18.18882 Z m -2.157734,1.94305 h 0.784642 v 2.33164 h -0.784642 z"
       inkscape:connector-curvature="0"
       style="stroke-width:0.26584241" />
    <path
       id="path5468"
       d="m 16.4234,151.48878 h 2.746212 v 0.3886 H 16.4234 Z"
       inkscape:connector-curvature="0"
       style="stroke-width:0.26584241" />
    <path
       id="path5470"
       d="m 19.561913,151.48878 h 1.176955 v 0.3886 h -1.176955 z"
       inkscape:connector-curvature="0"
       style="stroke-width:0.26584241" />
    <path
       id="path5472"
       d="m 16.4234,153.04321 h 2.746212 v 0.38859 H 16.4234 Z"
       inkscape:connector-curvature="0"
       style="stroke-width:0.26584241" />
    <path
       id="path5474"
       d="m 19.561913,153.04321 h 1.176955 v 0.38859 h -1.176955 z"
       inkscape:connector-curvature="0"
       style="stroke-width:0.26584241" />
    <path
       id="path5476"
       d="m 16.4234,152.266 h 1.569257 v 0.38859 H 16.4234 Z"
       inkscape:connector-curvature="0"
       style="stroke-width:0.26584241" />
    <path
       id="path5478"
       d="m 18.384984,152.266 h 2.353884 v 0.38859 h -2.353884 z"
       inkscape:connector-curvature="0"
       style="stroke-width:0.26584241" />
    <path
       id="path5480"
       d="m 22.9315,147.29336 -0.158501,0.35558 c 0.224797,0.0983 0.464312,0.14806 0.712055,0.14806 0.405843,0 0.779125,-0.13774 1.077698,-0.36685 0.0015,-0.001 0.0037,-0.002 0.0053,-0.003 0.0031,-0.002 0.0057,-0.005 0.0088,-0.008 0.04728,-0.0369 0.09261,-0.076 0.135744,-0.11734 0.0035,-0.003 0.0075,-0.006 0.01098,-0.01 0.04512,-0.0441 0.08788,-0.0904 0.128105,-0.13914 0.01295,-0.0157 0.02412,-0.0324 0.03667,-0.0486 0.02433,-0.0317 0.04845,-0.0635 0.07062,-0.0968 0.01627,-0.0245 0.03099,-0.0497 0.0461,-0.075 0.01589,-0.0268 0.03176,-0.0536 0.04629,-0.0814 0.0145,-0.0276 0.02786,-0.0554 0.04079,-0.0838 0.01277,-0.0278 0.02452,-0.0558 0.0359,-0.0843 0.01119,-0.0284 0.02198,-0.0565 0.0316,-0.0855 0.01058,-0.0315 0.01942,-0.0633 0.02823,-0.0956 0.0073,-0.0268 0.01512,-0.0536 0.02099,-0.0808 0.0084,-0.0383 0.0145,-0.0773 0.02019,-0.11658 0.0033,-0.0224 0.0079,-0.0445 0.01039,-0.067 0.0069,-0.0622 0.01101,-0.12551 0.01101,-0.18962 0,-0.068 -0.0049,-0.13486 -0.01255,-0.20074 -0.0024,-0.02 -0.0061,-0.0396 -0.0092,-0.0596 -0.0071,-0.0463 -0.01531,-0.0919 -0.02591,-0.13697 -0.0053,-0.0225 -0.01116,-0.0449 -0.01744,-0.067 -0.01178,-0.0424 -0.02532,-0.0837 -0.04001,-0.12475 -0.0079,-0.0217 -0.01531,-0.0435 -0.02393,-0.0647 -0.01824,-0.0449 -0.03905,-0.0882 -0.06082,-0.13115 -0.0079,-0.0153 -0.01432,-0.0315 -0.02276,-0.0466 -0.02941,-0.0538 -0.06218,-0.1057 -0.09709,-0.15603 -0.01531,-0.0221 -0.03237,-0.0431 -0.04885,-0.0647 -0.02273,-0.0299 -0.04608,-0.0593 -0.0706,-0.0876 -0.01904,-0.0218 -0.03846,-0.0429 -0.05866,-0.0639 -0.02687,-0.028 -0.05492,-0.0548 -0.08376,-0.081 -0.01902,-0.0173 -0.03766,-0.0352 -0.05748,-0.0517 -0.04864,-0.0408 -0.09926,-0.0795 -0.152198,-0.11483 -0.0016,-10e-4 -0.0032,-0.003 -0.0047,-0.003 -0.0012,-7.9e-4 -0.0025,-7.9e-4 -0.0037,-0.002 -0.279715,-0.1842 -0.615149,-0.29223 -0.97569,-0.29223 -0.23834,0 -0.469602,0.0462 -0.687321,0.13756 l 0.152999,0.3579 c 0.169079,-0.0709 0.348762,-0.10687 0.534322,-0.10687 0.211255,0 0.410757,0.049 0.589639,0.1337 l -0.752842,1.1186 c -0.04688,0.0696 -0.04354,0.16108 0.0082,0.22715 l 0.833482,1.06145 c -0.200277,0.11348 -0.431539,0.17936 -0.678506,0.17936 -0.192825,0 -0.378972,-0.0387 -0.553554,-0.11504 z m 1.469412,-2.25565 c 0.01039,0.009 0.02099,0.0184 0.0312,0.0282 0.01469,0.0138 0.02903,0.028 0.04295,0.0425 0.01806,0.0187 0.03569,0.0377 0.05257,0.0573 0.01274,0.0146 0.02471,0.0297 0.03689,0.0449 0.01608,0.0202 0.03176,0.0408 0.04688,0.062 0.01157,0.0165 0.02254,0.0336 0.03334,0.0505 0.01336,0.0208 0.02668,0.0416 0.03884,0.0631 0.011,0.0195 0.02081,0.0396 0.0308,0.0597 0.0102,0.0202 0.02059,0.0402 0.02962,0.061 0.01039,0.0235 0.01904,0.0476 0.02805,0.0717 0.0069,0.0184 0.01453,0.0367 0.02059,0.0556 0.009,0.0282 0.01629,0.0569 0.02334,0.0857 0.0039,0.0159 0.009,0.0315 0.01237,0.0476 0.0071,0.0334 0.01197,0.0676 0.01648,0.10181 0.0016,0.0124 0.0043,0.0243 0.0057,0.0367 0.0049,0.0468 0.0076,0.0944 0.0076,0.14224 0,0.0459 -0.0023,0.0913 -0.0069,0.13599 -0.0014,0.0128 -0.0039,0.0251 -0.0055,0.0379 -0.0041,0.0321 -0.0084,0.0641 -0.01472,0.0954 -0.0026,0.013 -0.0065,0.0255 -0.0094,0.0383 -0.0072,0.0307 -0.0145,0.0614 -0.02372,0.0911 -0.0037,0.012 -0.0084,0.0237 -0.01255,0.0356 -0.0102,0.0299 -0.02059,0.0598 -0.03277,0.0888 -0.0051,0.012 -0.01098,0.0235 -0.01648,0.0352 -0.01274,0.0278 -0.02548,0.0554 -0.04001,0.0822 -0.0075,0.0138 -0.01608,0.027 -0.02393,0.0406 -0.01373,0.0235 -0.02746,0.0468 -0.04255,0.0694 -0.01178,0.0177 -0.02492,0.0346 -0.03766,0.0517 -0.01255,0.0169 -0.02473,0.034 -0.03806,0.0504 -0.01902,0.0233 -0.03942,0.0456 -0.06021,0.0678 -0.0067,0.007 -0.01314,0.0148 -0.02001,0.0217 l -0.746592,-0.95073 z"
       inkscape:connector-curvature="0"
       style="stroke-width:0.26584241" />
    <path
       id="path5482"
       d="m 23.681217,151.10016 h -0.784628 v 0.38862 h 0.980792 1.176929 c 0.108285,0 0.196164,-0.0869 0.196164,-0.19431 v -2.13733 c 0,-0.10747 -0.08788,-0.19431 -0.196164,-0.19431 h -0.980792 v -0.5829 c 0,-0.10748 -0.08788,-0.19431 -0.196137,-0.19431 h -0.980792 v 0.38859 h 0.784628 v 0.58293 z m 1.176929,-1.74873 v 1.74873 h -0.784628 v -1.74873 z"
       inkscape:connector-curvature="0"
       style="stroke-width:0.26584241" />
    <path
       id="path5484"
       d="m 19.365749,142.93942 h 1.961584 v 0.38861 h -1.961584 z"
       inkscape:connector-curvature="0"
       style="stroke-width:0.26584241" />
    <path
       id="path5486"
       d="m 21.719634,142.93942 h 0.980791 v 0.38861 h -0.980791 z"
       inkscape:connector-curvature="0"
       style="stroke-width:0.26584241" />
    <path
       id="path5494"
       d="m -10.918342,177.83476 v -6.95656 h -1.451399 v -0.45131 h 1.895793 v 7.85919 h -6.882728 v -7.85919 h 1.895755 v 0.45131 h -1.451366 v 6.95656 z"
       inkscape:connector-curvature="0"
       style="stroke-width:0.26663646" />
    <path
       id="path5496"
       d="m -16.157712,173.44438 0.31463,-0.31954 0.27019,0.27531 0.659474,-0.67066 0.314616,0.31954 -0.97409,0.98927 z"
       inkscape:connector-curvature="0"
       style="stroke-width:0.26663646" />
    <path
       id="path5498"
       d="m -16.157712,176.07915 0.31463,-0.31955 0.27019,0.2744 0.659474,-0.66975 0.314616,0.31955 -0.97409,0.98838 z"
       inkscape:connector-curvature="0"
       style="stroke-width:0.26663646" />
    <path
       id="path5500"
       d="m -12.147544,171.30515 h -3.535547 v -0.97845 c 0,-0.27982 0.223969,-0.50728 0.49948,-0.50728 h 2.536587 c 0.275511,0 0.49948,0.22746 0.49948,0.50728 z m -3.09118,-0.45132 h 2.646813 v -0.52713 c 0,-0.0307 -0.0249,-0.056 -0.05511,-0.056 h -2.536587 c -0.03021,0 -0.05511,0.0253 -0.05511,0.056 z"
       inkscape:connector-curvature="0"
       style="stroke-width:0.26663646" />
    <path
       id="path5502"
       d="m -13.980207,173.07881 h 2.25306 v 0.45131 h -2.25306 z"
       inkscape:connector-curvature="0"
       style="stroke-width:0.26663646" />
    <path
       id="path5504"
       d="m -13.980207,175.71269 h 2.25306 v 0.45131 h -2.25306 z"
       inkscape:connector-curvature="0"
       style="stroke-width:0.26663646" />
  </g>
</svg>
