<?xml version="1.0" encoding="UTF-8" standalone="no"?>
<!-- Created with Inkscape (http://www.inkscape.org/) -->

<svg
   xmlns:dc="http://purl.org/dc/elements/1.1/"
   xmlns:cc="http://creativecommons.org/ns#"
   xmlns:rdf="http://www.w3.org/1999/02/22-rdf-syntax-ns#"
   xmlns:svg="http://www.w3.org/2000/svg"
   xmlns="http://www.w3.org/2000/svg"
   xmlns:sodipodi="http://sodipodi.sourceforge.net/DTD/sodipodi-0.dtd"
   xmlns:inkscape="http://www.inkscape.org/namespaces/inkscape"
   width="154.90138mm"
   height="59.056446mm"
   viewBox="0 0 154.90138 59.056446"
   version="1.1"
   id="svg8"
   inkscape:version="0.92.4 (5da689c313, 2019-01-14)"
   sodipodi:docname="slc_fig5.svg">
  <defs
     id="defs2">
    <clipPath
       id="clipPath855"
       clipPathUnits="userSpaceOnUse">
      <path
         style="clip-rule:evenodd"
         inkscape:connector-curvature="0"
         id="path853"
         d="M -2.74e-6,762.96 H 595.32 v 43.56 H -2.74e-6 Z" />
    </clipPath>
    <clipPath
       id="clipPath1191"
       clipPathUnits="userSpaceOnUse">
      <path
         style="clip-rule:evenodd"
         inkscape:connector-curvature="0"
         id="path1189"
         d="M -8.689e-6,531.84 H 595.31999 V 749.52 H -8.689e-6 Z" />
    </clipPath>
    <clipPath
       id="clipPath1201"
       clipPathUnits="userSpaceOnUse">
      <path
         inkscape:connector-curvature="0"
         id="path1199"
         d="M 0,0 H 707.24 V 322.5 H 0 Z" />
    </clipPath>
    <linearGradient
       id="linearGradient1221"
       spreadMethod="pad"
       gradientTransform="matrix(0.15957362,0,0,0.35005426,279.25093,-544.48349)"
       gradientUnits="userSpaceOnUse"
       y2="161.25"
       x2="330.35001"
       y1="387.34"
       x1="330.35001">
      <stop
         id="stop1211"
         offset="0"
         style="stop-opacity:1;stop-color:#c95e15" />
      <stop
         id="stop1213"
         offset="0.25"
         style="stop-opacity:1;stop-color:#da6c22" />
      <stop
         id="stop1215"
         offset="0.5"
         style="stop-opacity:1;stop-color:#da7f51" />
      <stop
         id="stop1217"
         offset="0.75"
         style="stop-opacity:1;stop-color:#da6c22" />
      <stop
         id="stop1219"
         offset="1"
         style="stop-opacity:1;stop-color:#c95e15" />
    </linearGradient>
    <linearGradient
       id="linearGradient1241"
       spreadMethod="pad"
       gradientTransform="matrix(0.15957362,0,0,0.35005426,279.25093,-544.48349)"
       gradientUnits="userSpaceOnUse"
       y2="-169.82001"
       x2="352.57001"
       y1="476.85999"
       x1="352.57001">
      <stop
         id="stop1227"
         offset="0"
         style="stop-opacity:1;stop-color:#818181" />
      <stop
         id="stop1229"
         offset="0.16667"
         style="stop-opacity:1;stop-color:#929292" />
      <stop
         id="stop1231"
         offset="0.33333"
         style="stop-opacity:1;stop-color:#9e9e9e" />
      <stop
         id="stop1233"
         offset="0.5"
         style="stop-opacity:1;stop-color:#929292" />
      <stop
         id="stop1235"
         offset="0.66667"
         style="stop-opacity:1;stop-color:#818181" />
      <stop
         id="stop1237"
         offset="0.83333"
         style="stop-opacity:1;stop-color:#929292" />
      <stop
         id="stop1239"
         offset="1"
         style="stop-opacity:1;stop-color:#9e9e9e" />
    </linearGradient>
    <linearGradient
       id="linearGradient1257"
       spreadMethod="pad"
       gradientTransform="matrix(0.15957362,0,0,0.35005426,279.25093,-544.48349)"
       gradientUnits="userSpaceOnUse"
       y2="46.525002"
       x2="262.95001"
       y1="275.97"
       x1="262.95001">
      <stop
         id="stop1247"
         offset="0"
         style="stop-opacity:1;stop-color:#dca000" />
      <stop
         id="stop1249"
         offset="0.25"
         style="stop-opacity:1;stop-color:#edaf00" />
      <stop
         id="stop1251"
         offset="0.5"
         style="stop-opacity:1;stop-color:#ebb545" />
      <stop
         id="stop1253"
         offset="0.75"
         style="stop-opacity:1;stop-color:#edaf00" />
      <stop
         id="stop1255"
         offset="1"
         style="stop-opacity:1;stop-color:#dca000" />
    </linearGradient>
    <linearGradient
       id="linearGradient1273"
       spreadMethod="pad"
       gradientTransform="matrix(0.15957362,0,0,0.35005426,279.25093,-544.48349)"
       gradientUnits="userSpaceOnUse"
       y2="75.254997"
       x2="246.21001"
       y1="247.24001"
       x1="246.21001">
      <stop
         id="stop1263"
         offset="0"
         style="stop-opacity:1;stop-color:#2955a4" />
      <stop
         id="stop1265"
         offset="0.25"
         style="stop-opacity:1;stop-color:#3563b3" />
      <stop
         id="stop1267"
         offset="0.5"
         style="stop-opacity:1;stop-color:#5977b8" />
      <stop
         id="stop1269"
         offset="0.75"
         style="stop-opacity:1;stop-color:#3563b3" />
      <stop
         id="stop1271"
         offset="1"
         style="stop-opacity:1;stop-color:#2955a4" />
    </linearGradient>
    <linearGradient
       id="linearGradient1289"
       spreadMethod="pad"
       gradientTransform="matrix(0.15957362,0,0,0.35005426,279.25093,-544.48349)"
       gradientUnits="userSpaceOnUse"
       y2="127.9"
       x2="243.73"
       y1="425.59"
       x1="243.73">
      <stop
         id="stop1279"
         offset="0"
         style="stop-opacity:1;stop-color:#558f2e" />
      <stop
         id="stop1281"
         offset="0.25"
         style="stop-opacity:1;stop-color:#619d39" />
      <stop
         id="stop1283"
         offset="0.5"
         style="stop-opacity:1;stop-color:#76a55b" />
      <stop
         id="stop1285"
         offset="0.75"
         style="stop-opacity:1;stop-color:#619d39" />
      <stop
         id="stop1287"
         offset="1"
         style="stop-opacity:1;stop-color:#558f2e" />
    </linearGradient>
    <clipPath
       id="clipPath1299"
       clipPathUnits="userSpaceOnUse">
      <path
         style="clip-rule:evenodd"
         inkscape:connector-curvature="0"
         id="path1297"
         d="m 294,112.5 h 33.75 V 273 H 294 Z" />
    </clipPath>
    <clipPath
       id="clipPath1311"
       clipPathUnits="userSpaceOnUse">
      <path
         style="clip-rule:evenodd"
         inkscape:connector-curvature="0"
         id="path1309"
         d="m 319.5,105.75 h 33.75 v 160.5 H 319.5 Z" />
    </clipPath>
    <clipPath
       id="clipPath1323"
       clipPathUnits="userSpaceOnUse">
      <path
         style="clip-rule:evenodd"
         inkscape:connector-curvature="0"
         id="path1321"
         d="m 371.25,0.7464 h 41.25 v 136.5 h -41.25 z" />
    </clipPath>
    <clipPath
       id="clipPath1335"
       clipPathUnits="userSpaceOnUse">
      <path
         style="clip-rule:evenodd"
         inkscape:connector-curvature="0"
         id="path1333"
         d="M 240.75,0.7464 H 282 v 80.25 h -41.25 z" />
    </clipPath>
    <clipPath
       id="clipPath1347"
       clipPathUnits="userSpaceOnUse">
      <path
         style="clip-rule:evenodd"
         inkscape:connector-curvature="0"
         id="path1345"
         d="m 199.5,0.7464 h 33.75 v 117.75 H 199.5 Z" />
    </clipPath>
    <clipPath
       id="clipPath1359"
       clipPathUnits="userSpaceOnUse">
      <path
         style="clip-rule:evenodd"
         inkscape:connector-curvature="0"
         id="path1357"
         d="m 202.5,68.246 h 41.25 v 160.5 H 202.5 Z" />
    </clipPath>
    <clipPath
       id="clipPath1373"
       clipPathUnits="userSpaceOnUse">
      <path
         style="clip-rule:evenodd"
         inkscape:connector-curvature="0"
         id="path1371"
         d="m 14.25,0.7464 h 117 v 219.75 h -117 z" />
    </clipPath>
    <linearGradient
       id="linearGradient1391"
       spreadMethod="pad"
       gradientTransform="matrix(0.15957362,0,0,0.35005426,279.25093,-544.48349)"
       gradientUnits="userSpaceOnUse"
       y2="189"
       x2="15.375"
       y1="201"
       x1="15.375">
      <stop
         id="stop1381"
         offset="0"
         style="stop-opacity:1;stop-color:#c95e15" />
      <stop
         id="stop1383"
         offset="0.25"
         style="stop-opacity:1;stop-color:#da6c22" />
      <stop
         id="stop1385"
         offset="0.5"
         style="stop-opacity:1;stop-color:#da7f51" />
      <stop
         id="stop1387"
         offset="0.75"
         style="stop-opacity:1;stop-color:#da6c22" />
      <stop
         id="stop1389"
         offset="1"
         style="stop-opacity:1;stop-color:#c95e15" />
    </linearGradient>
    <clipPath
       id="clipPath1401"
       clipPathUnits="userSpaceOnUse">
      <path
         style="clip-rule:evenodd"
         inkscape:connector-curvature="0"
         id="path1399"
         d="m 14.25,0.7464 h 93 v 199.5 h -93 z" />
    </clipPath>
    <linearGradient
       id="linearGradient1419"
       spreadMethod="pad"
       gradientTransform="matrix(0.15957362,0,0,0.35005426,279.25093,-544.48349)"
       gradientUnits="userSpaceOnUse"
       y2="168"
       x2="15.375"
       y1="181.5"
       x1="15.375">
      <stop
         id="stop1409"
         offset="0"
         style="stop-opacity:1;stop-color:#818181" />
      <stop
         id="stop1411"
         offset="0.25"
         style="stop-opacity:1;stop-color:#929292" />
      <stop
         id="stop1413"
         offset="0.5"
         style="stop-opacity:1;stop-color:#9e9e9e" />
      <stop
         id="stop1415"
         offset="0.75"
         style="stop-opacity:1;stop-color:#929292" />
      <stop
         id="stop1417"
         offset="1"
         style="stop-opacity:1;stop-color:#818181" />
    </linearGradient>
    <clipPath
       id="clipPath1429"
       clipPathUnits="userSpaceOnUse">
      <path
         style="clip-rule:evenodd"
         inkscape:connector-curvature="0"
         id="path1427"
         d="M 14.25,0.7464 H 61.5 v 178.5 H 14.25 Z" />
    </clipPath>
    <linearGradient
       id="linearGradient1447"
       spreadMethod="pad"
       gradientTransform="matrix(0.15957362,0,0,0.35005426,279.25093,-544.48349)"
       gradientUnits="userSpaceOnUse"
       y2="147.75"
       x2="15.375"
       y1="161.25"
       x1="15.375">
      <stop
         id="stop1437"
         offset="0"
         style="stop-opacity:1;stop-color:#dca000" />
      <stop
         id="stop1439"
         offset="0.25"
         style="stop-opacity:1;stop-color:#edaf00" />
      <stop
         id="stop1441"
         offset="0.5"
         style="stop-opacity:1;stop-color:#ebb545" />
      <stop
         id="stop1443"
         offset="0.75"
         style="stop-opacity:1;stop-color:#edaf00" />
      <stop
         id="stop1445"
         offset="1"
         style="stop-opacity:1;stop-color:#dca000" />
    </linearGradient>
    <clipPath
       id="clipPath1457"
       clipPathUnits="userSpaceOnUse">
      <path
         style="clip-rule:evenodd"
         inkscape:connector-curvature="0"
         id="path1455"
         d="m 14.25,0.7464 h 145.5 v 158.25 H 14.25 Z" />
    </clipPath>
    <linearGradient
       id="linearGradient1475"
       spreadMethod="pad"
       gradientTransform="matrix(0.15957362,0,0,0.35005426,279.25093,-544.48349)"
       gradientUnits="userSpaceOnUse"
       y2="127.5"
       x2="15.375"
       y1="139.5"
       x1="15.375">
      <stop
         id="stop1465"
         offset="0"
         style="stop-opacity:1;stop-color:#2955a4" />
      <stop
         id="stop1467"
         offset="0.25"
         style="stop-opacity:1;stop-color:#3563b3" />
      <stop
         id="stop1469"
         offset="0.5"
         style="stop-opacity:1;stop-color:#5977b8" />
      <stop
         id="stop1471"
         offset="0.75"
         style="stop-opacity:1;stop-color:#3563b3" />
      <stop
         id="stop1473"
         offset="1"
         style="stop-opacity:1;stop-color:#2955a4" />
    </linearGradient>
    <clipPath
       id="clipPath1485"
       clipPathUnits="userSpaceOnUse">
      <path
         style="clip-rule:evenodd"
         inkscape:connector-curvature="0"
         id="path1483"
         d="m 14.25,0.7464 h 69 v 138 h -69 z" />
    </clipPath>
    <linearGradient
       id="linearGradient1503"
       spreadMethod="pad"
       gradientTransform="matrix(0.15957362,0,0,0.35005426,279.25093,-544.48349)"
       gradientUnits="userSpaceOnUse"
       y2="106.5"
       x2="15.375"
       y1="120"
       x1="15.375">
      <stop
         id="stop1493"
         offset="0"
         style="stop-opacity:1;stop-color:#558f2e" />
      <stop
         id="stop1495"
         offset="0.25"
         style="stop-opacity:1;stop-color:#619d39" />
      <stop
         id="stop1497"
         offset="0.5"
         style="stop-opacity:1;stop-color:#76a55b" />
      <stop
         id="stop1499"
         offset="0.75"
         style="stop-opacity:1;stop-color:#619d39" />
      <stop
         id="stop1501"
         offset="1"
         style="stop-opacity:1;stop-color:#558f2e" />
    </linearGradient>
    <clipPath
       id="clipPath1513"
       clipPathUnits="userSpaceOnUse">
      <path
         style="clip-rule:evenodd"
         inkscape:connector-curvature="0"
         id="path1511"
         d="M 14.25,0.7464 H 55.5 v 117 H 14.25 Z" />
    </clipPath>
    <linearGradient
       id="linearGradient1533"
       spreadMethod="pad"
       gradientTransform="matrix(0.15957362,0,0,0.35005426,279.25093,-544.48349)"
       gradientUnits="userSpaceOnUse"
       y2="162"
       x2="616.54999"
       y1="294.75"
       x1="616.54999">
      <stop
         id="stop1523"
         offset="0"
         style="stop-opacity:1;stop-color:#c95e15" />
      <stop
         id="stop1525"
         offset="0.25"
         style="stop-opacity:1;stop-color:#da6c22" />
      <stop
         id="stop1527"
         offset="0.5"
         style="stop-opacity:1;stop-color:#da7f51" />
      <stop
         id="stop1529"
         offset="0.75"
         style="stop-opacity:1;stop-color:#da6c22" />
      <stop
         id="stop1531"
         offset="1"
         style="stop-opacity:1;stop-color:#c95e15" />
    </linearGradient>
    <linearGradient
       id="linearGradient1553"
       spreadMethod="pad"
       gradientTransform="matrix(0.15957362,0,0,0.35005426,279.25093,-544.48349)"
       gradientUnits="userSpaceOnUse"
       y2="-33.451"
       x2="606.5"
       y1="350.35001"
       x1="606.5">
      <stop
         id="stop1539"
         offset="0"
         style="stop-opacity:1;stop-color:#818181" />
      <stop
         id="stop1541"
         offset="0.16667"
         style="stop-opacity:1;stop-color:#929292" />
      <stop
         id="stop1543"
         offset="0.33333"
         style="stop-opacity:1;stop-color:#9e9e9e" />
      <stop
         id="stop1545"
         offset="0.5"
         style="stop-opacity:1;stop-color:#929292" />
      <stop
         id="stop1547"
         offset="0.66667"
         style="stop-opacity:1;stop-color:#818181" />
      <stop
         id="stop1549"
         offset="0.83333"
         style="stop-opacity:1;stop-color:#929292" />
      <stop
         id="stop1551"
         offset="1"
         style="stop-opacity:1;stop-color:#9e9e9e" />
    </linearGradient>
    <linearGradient
       id="linearGradient1569"
       spreadMethod="pad"
       gradientTransform="matrix(0.15957362,0,0,0.35005426,279.25093,-544.48349)"
       gradientUnits="userSpaceOnUse"
       y2="126.67"
       x2="567.75"
       y1="222.69"
       x1="567.75">
      <stop
         id="stop1559"
         offset="0"
         style="stop-opacity:1;stop-color:#dca000" />
      <stop
         id="stop1561"
         offset="0.25"
         style="stop-opacity:1;stop-color:#edaf00" />
      <stop
         id="stop1563"
         offset="0.5"
         style="stop-opacity:1;stop-color:#ebb545" />
      <stop
         id="stop1565"
         offset="0.75"
         style="stop-opacity:1;stop-color:#edaf00" />
      <stop
         id="stop1567"
         offset="1"
         style="stop-opacity:1;stop-color:#dca000" />
    </linearGradient>
    <linearGradient
       id="linearGradient1585"
       spreadMethod="pad"
       gradientTransform="matrix(0.15957362,0,0,0.35005426,279.25093,-544.48349)"
       gradientUnits="userSpaceOnUse"
       y2="162"
       x2="568.34998"
       y1="246.39999"
       x1="568.34998">
      <stop
         id="stop1575"
         offset="0"
         style="stop-opacity:1;stop-color:#2955a4" />
      <stop
         id="stop1577"
         offset="0.25"
         style="stop-opacity:1;stop-color:#3563b3" />
      <stop
         id="stop1579"
         offset="0.5"
         style="stop-opacity:1;stop-color:#5977b8" />
      <stop
         id="stop1581"
         offset="0.75"
         style="stop-opacity:1;stop-color:#3563b3" />
      <stop
         id="stop1583"
         offset="1"
         style="stop-opacity:1;stop-color:#2955a4" />
    </linearGradient>
    <linearGradient
       id="linearGradient1601"
       spreadMethod="pad"
       gradientTransform="matrix(0.15957362,0,0,0.35005426,279.25093,-544.48349)"
       gradientUnits="userSpaceOnUse"
       y2="162"
       x2="575.15997"
       y1="297"
       x1="575.15997">
      <stop
         id="stop1591"
         offset="0"
         style="stop-opacity:1;stop-color:#558f2e" />
      <stop
         id="stop1593"
         offset="0.25"
         style="stop-opacity:1;stop-color:#619d39" />
      <stop
         id="stop1595"
         offset="0.5"
         style="stop-opacity:1;stop-color:#76a55b" />
      <stop
         id="stop1597"
         offset="0.75"
         style="stop-opacity:1;stop-color:#619d39" />
      <stop
         id="stop1599"
         offset="1"
         style="stop-opacity:1;stop-color:#558f2e" />
    </linearGradient>
    <clipPath
       id="clipPath1611"
       clipPathUnits="userSpaceOnUse">
      <path
         style="clip-rule:evenodd"
         inkscape:connector-curvature="0"
         id="path1609"
         d="m 594,162 h 34.5 v 90 H 594 Z" />
    </clipPath>
    <clipPath
       id="clipPath1623"
       clipPathUnits="userSpaceOnUse">
      <path
         style="clip-rule:evenodd"
         inkscape:connector-curvature="0"
         id="path1621"
         d="m 618.75,159 h 34.5 v 90 h -34.5 z" />
    </clipPath>
    <clipPath
       id="clipPath1635"
       clipPathUnits="userSpaceOnUse">
      <path
         style="clip-rule:evenodd"
         inkscape:connector-curvature="0"
         id="path1633"
         d="M 648.75,72.746 H 690 v 42.75 h -41.25 z" />
    </clipPath>
    <clipPath
       id="clipPath1647"
       clipPathUnits="userSpaceOnUse">
      <path
         style="clip-rule:evenodd"
         inkscape:connector-curvature="0"
         id="path1645"
         d="M 496.5,72.746 H 537 v 85.5 h -40.5 z" />
    </clipPath>
    <clipPath
       id="clipPath1661"
       clipPathUnits="userSpaceOnUse">
      <path
         style="clip-rule:evenodd"
         inkscape:connector-curvature="0"
         id="path1659"
         d="M 508.5,116.25 H 543 v 90 h -34.5 z" />
    </clipPath>
    <clipPath
       id="clipPath1673"
       clipPathUnits="userSpaceOnUse">
      <path
         style="clip-rule:evenodd"
         inkscape:connector-curvature="0"
         id="path1671"
         d="M 531.75,145.5 H 573 v 90 h -41.25 z" />
    </clipPath>
  </defs>
  <sodipodi:namedview
     id="base"
     pagecolor="#ffffff"
     bordercolor="#666666"
     borderopacity="1.0"
     inkscape:pageopacity="0.0"
     inkscape:pageshadow="2"
     inkscape:zoom="1.979899"
     inkscape:cx="324.73184"
     inkscape:cy="12.786868"
     inkscape:document-units="mm"
     inkscape:current-layer="layer1"
     showgrid="false"
     fit-margin-left="2"
     fit-margin-right="2"
     fit-margin-bottom="2"
     fit-margin-top="2"
     inkscape:window-width="3440"
     inkscape:window-height="1377"
     inkscape:window-x="1912"
     inkscape:window-y="-8"
     inkscape:window-maximized="1" />
  <metadata
     id="metadata5">
    <rdf:RDF>
      <cc:Work
         rdf:about="">
        <dc:format>image/svg+xml</dc:format>
        <dc:type
           rdf:resource="http://purl.org/dc/dcmitype/StillImage" />
        <dc:title></dc:title>
      </cc:Work>
    </rdf:RDF>
  </metadata>
  <g
     inkscape:label="Layer 1"
     inkscape:groupmode="layer"
     id="layer1"
     transform="translate(-30.954655,-76.065556)">
    <g
       id="g825"
       transform="matrix(0.35277777,0,0,-0.35277777,39.33177,337.69329)" />
    <g
       id="g827"
       transform="matrix(0.35277777,0,0,-0.35277777,39.33177,337.69329)" />
    <g
       id="g845"
       transform="matrix(0.35277777,0,0,-0.35277777,39.33177,337.69329)" />
    <g
       id="g847"
       transform="matrix(0.35277777,0,0,-0.35277777,39.33177,337.69329)" />
    <g
       id="g1193"
       transform="matrix(2.2107525,0,0,-1.0077803,30.254,142.23049)">
      <g
         id="g1195"
         transform="scale(0.1018,0.22326)">
        <g
           id="g1197"
           clip-path="url(#clipPath1201)">
          <g
             id="g1203">
            <path
               d="M 302.63,41.592 604.84,92.621"
               style="fill:none;stroke:#d9d9d9;stroke-width:2.25;stroke-linecap:butt;stroke-linejoin:round;stroke-miterlimit:10;stroke-dasharray:6.75, 2.25;stroke-dashoffset:0;stroke-opacity:1"
               id="path1205"
               inkscape:connector-curvature="0" />
          </g>
          <path
             d="m 301.5,161.25 23.68,113.04 c -7.79,1.63 -15.72,2.46 -23.68,2.46 z"
             style="fill:#ffff00;fill-opacity:1;fill-rule:evenodd;stroke:none"
             id="path1207"
             inkscape:connector-curvature="0" />
          <g
             id="g1209">
            <path
               d="m 325.18,274.29 c 11.95,-2.5 23.44,-6.89 34.02,-12.99 v 0 L 301.5,161.25 Z"
               style="fill:url(#linearGradient1221);fill-opacity:1;fill-rule:evenodd;stroke:none"
               id="path1223"
               inkscape:connector-curvature="0" />
          </g>
          <g
             id="g1225">
            <path
               d="M 359.2,261.3 C 414.46,229.44 433.42,158.81 401.56,103.55 378.52,63.597 333.92,41.18 288.11,46.525 v 0 L 301.5,161.25 Z"
               style="fill:url(#linearGradient1241);fill-opacity:1;fill-rule:evenodd;stroke:none"
               id="path1243"
               inkscape:connector-curvature="0" />
          </g>
          <g
             id="g1245">
            <path
               d="m 288.11,46.525 c -23.69,2.765 -45.95,12.801 -63.72,28.73 v 0 l 77.11,85.995 z"
               style="fill:url(#linearGradient1257);fill-opacity:1;fill-rule:evenodd;stroke:none"
               id="path1259"
               inkscape:connector-curvature="0" />
          </g>
          <g
             id="g1261">
            <path
               d="M 224.39,75.255 C 208.62,89.401 197.04,107.61 190.92,127.9 v 0 l 110.58,33.35 z"
               style="fill:url(#linearGradient1273);fill-opacity:1;fill-rule:evenodd;stroke:none"
               id="path1275"
               inkscape:connector-curvature="0" />
          </g>
          <g
             id="g1277">
            <path
               d="m 190.92,127.9 c -18.42,61.07 16.16,125.51 77.23,143.93 10.82,3.26 22.05,4.92 33.35,4.92 v 0 -115.5 z"
               style="fill:url(#linearGradient1289);fill-opacity:1;fill-rule:evenodd;stroke:none"
               id="path1291"
               inkscape:connector-curvature="0" />
          </g>
          <g
             id="g1293">
            <g
               id="g1295"
               clip-path="url(#clipPath1299)">
              <text
                 transform="matrix(1,0,0,-1,302.23,257.52)"
                 style="font-variant:normal;font-weight:bold;font-size:14.27499962px;font-family:Calibri;-inkscape-font-specification:'Calibri Bold';writing-mode:lr-tb;fill:#000000;fill-opacity:1;fill-rule:nonzero;stroke:none"
                 id="text1303">
                <tspan
                   x="0 7.5004249"
                   y="0"
                   sodipodi:role="line"
                   id="tspan1301">3%</tspan>
              </text>
            </g>
          </g>
          <g
             id="g1305">
            <g
               id="g1307"
               clip-path="url(#clipPath1311)">
              <text
                 transform="matrix(1,0,0,-1,327.75,250.75)"
                 style="font-variant:normal;font-weight:bold;font-size:14.30000019px;font-family:Calibri;-inkscape-font-specification:'Calibri Bold';writing-mode:lr-tb;fill:#000000;fill-opacity:1;fill-rule:nonzero;stroke:none"
                 id="text1315">
                <tspan
                   x="0 7.5001001"
                   y="0"
                   sodipodi:role="line"
                   id="tspan1313">5%</tspan>
              </text>
            </g>
          </g>
          <g
             id="g1317">
            <g
               id="g1319"
               clip-path="url(#clipPath1323)">
              <text
                 transform="matrix(1,0,0,-1,379.35,121.45)"
                 style="font-variant:normal;font-weight:bold;font-size:14.30000019px;font-family:Calibri;-inkscape-font-specification:'Calibri Bold';writing-mode:lr-tb;fill:#000000;fill-opacity:1;fill-rule:nonzero;stroke:none"
                 id="text1327">
                <tspan
                   x="0 7.5001001 15.0002"
                   y="0"
                   sodipodi:role="line"
                   id="tspan1325">43%</tspan>
              </text>
            </g>
          </g>
          <g
             id="g1329">
            <g
               id="g1331"
               clip-path="url(#clipPath1335)">
              <text
                 transform="matrix(1,0,0,-1,248.72,65.071)"
                 style="font-variant:normal;font-weight:bold;font-size:14.27499962px;font-family:Calibri;-inkscape-font-specification:'Calibri Bold';writing-mode:lr-tb;fill:#000000;fill-opacity:1;fill-rule:nonzero;stroke:none"
                 id="text1339">
                <tspan
                   x="0 7.525425 15.05085"
                   y="0"
                   sodipodi:role="line"
                   id="tspan1337">10%</tspan>
              </text>
            </g>
          </g>
          <g
             id="g1341">
            <g
               id="g1343"
               clip-path="url(#clipPath1347)">
              <text
                 transform="matrix(1,0,0,-1,207.63,102.67)"
                 style="font-variant:normal;font-weight:bold;font-size:14.27499962px;font-family:Calibri;-inkscape-font-specification:'Calibri Bold';writing-mode:lr-tb;fill:#000000;fill-opacity:1;fill-rule:nonzero;stroke:none"
                 id="text1351">
                <tspan
                   x="0 7.5004249"
                   y="0"
                   sodipodi:role="line"
                   id="tspan1349">9%</tspan>
              </text>
            </g>
          </g>
          <g
             id="g1353">
            <g
               id="g1355"
               clip-path="url(#clipPath1359)">
              <text
                 transform="matrix(1,0,0,-1,210.43,213.17)"
                 style="font-variant:normal;font-weight:bold;font-size:14.27499962px;font-family:Calibri;-inkscape-font-specification:'Calibri Bold';writing-mode:lr-tb;fill:#000000;fill-opacity:1;fill-rule:nonzero;stroke:none"
                 id="text1363">
                <tspan
                   x="0 7.5004249 15.00085"
                   y="0"
                   sodipodi:role="line"
                   id="tspan1361">30%</tspan>
              </text>
            </g>
          </g>
          <path
             d="m 12,208.5 h 7.5 V 216 H 12 Z"
             style="fill:#ffff00;fill-opacity:1;fill-rule:evenodd;stroke:none"
             id="path1365"
             inkscape:connector-curvature="0" />
          <g
             id="g1367">
            <g
               id="g1369"
               clip-path="url(#clipPath1373)">
              <text
                 transform="matrix(1,0,0,-1,21.825,208.97)"
                 style="font-variant:normal;font-weight:normal;font-size:12.02499962px;font-family:Calibri;-inkscape-font-specification:Calibri;writing-mode:lr-tb;fill:#000000;fill-opacity:1;fill-rule:nonzero;stroke:none"
                 id="text1377">
                <tspan
                   x="0 6.0245252 10.5339 16.558426 19.540625 25.553125 30.820074 34.571877 36.820549 42.845074 48.857574 54.136551 60.149052 63.131248 69.155777 75.180298 84.944603 90.9571 96.981628"
                   y="0"
                   sodipodi:role="line"
                   id="tspan1375">Project development</tspan>
              </text>
            </g>
          </g>
          <g
             id="g1379">
            <path
               d="m 12,189 h 6.75 v 6 H 12 Z"
               style="fill:url(#linearGradient1391);fill-opacity:1;fill-rule:evenodd;stroke:none"
               id="path1393"
               inkscape:connector-curvature="0" />
          </g>
          <g
             id="g1395">
            <g
               id="g1397"
               clip-path="url(#clipPath1401)">
              <text
                 transform="matrix(1,0,0,-1,21.825,188.42)"
                 style="font-variant:normal;font-weight:normal;font-size:12.02499962px;font-family:Calibri;-inkscape-font-specification:Calibri;writing-mode:lr-tb;fill:#000000;fill-opacity:1;fill-rule:nonzero;stroke:none"
                 id="text1405">
                <tspan
                   x="0 7.5276499 12.037025 15.019225 21.043751 23.292425 28.559376 34.5839 40.608425 46.63295 52.645451 57.912399 61.6642 64.6464 70.670921"
                   y="0"
                   sodipodi:role="line"
                   id="tspan1403">Grid connection</tspan>
              </text>
            </g>
          </g>
          <g
             id="g1407">
            <path
               d="m 12,168 h 6.75 v 6.75 H 12 Z"
               style="fill:url(#linearGradient1419);fill-opacity:1;fill-rule:evenodd;stroke:none"
               id="path1421"
               inkscape:connector-curvature="0" />
          </g>
          <g
             id="g1423">
            <g
               id="g1425"
               clip-path="url(#clipPath1429)">
              <text
                 transform="matrix(1,0,0,-1,21.825,167.87)"
                 style="font-variant:normal;font-weight:normal;font-size:12.02499962px;font-family:Calibri;-inkscape-font-specification:Calibri;writing-mode:lr-tb;fill:#000000;fill-opacity:1;fill-rule:nonzero;stroke:none"
                 id="text1433">
                <tspan
                   x="0 7.515625 13.528125 18.8071 21.789301 27.05625"
                   y="0"
                   sodipodi:role="line"
                   id="tspan1431">Device</tspan>
              </text>
            </g>
          </g>
          <g
             id="g1435">
            <path
               d="m 12,147.75 h 6.75 v 6.75 H 12 Z"
               style="fill:url(#linearGradient1447);fill-opacity:1;fill-rule:evenodd;stroke:none"
               id="path1449"
               inkscape:connector-curvature="0" />
          </g>
          <g
             id="g1451">
            <g
               id="g1453"
               clip-path="url(#clipPath1457)">
              <text
                 transform="matrix(1,0,0,-1,21.825,147.32)"
                 style="font-variant:normal;font-weight:normal;font-size:12.02499962px;font-family:Calibri;-inkscape-font-specification:Calibri;writing-mode:lr-tb;fill:#000000;fill-opacity:1;fill-rule:nonzero;stroke:none"
                 id="text1461">
                <tspan
                   x="0 10.50985 16.534374 22.558901 27.068275 30.050474 36.075001 42.087502 46.608898 48.857574 54.870075 60.8946 66.919128 69.901321 75.180298 81.204826 87.229347 93.253876 99.278397 105.2909 109.0427 112.0249 118.04942 124.07395"
                   y="0"
                   sodipodi:role="line"
                   id="tspan1459">Moorings and Foundations</tspan>
              </text>
            </g>
          </g>
          <g
             id="g1463">
            <path
               d="m 12,127.5 h 6.75 v 6 H 12 Z"
               style="fill:url(#linearGradient1475);fill-opacity:1;fill-rule:evenodd;stroke:none"
               id="path1477"
               inkscape:connector-curvature="0" />
          </g>
          <g
             id="g1479">
            <g
               id="g1481"
               clip-path="url(#clipPath1485)">
              <text
                 transform="matrix(1,0,0,-1,21.825,126.77)"
                 style="font-variant:normal;font-weight:normal;font-size:12.02499962px;font-family:Calibri;-inkscape-font-specification:Calibri;writing-mode:lr-tb;fill:#000000;fill-opacity:1;fill-rule:nonzero;stroke:none"
                 id="text1489">
                <tspan
                   x="0 3.0302999 9.0307751 13.552175 17.303974 23.316475 26.298676 29.280874 35.293373 39.045174 42.027374 48.051899"
                   y="0"
                   sodipodi:role="line"
                   id="tspan1487">Installation</tspan>
              </text>
            </g>
          </g>
          <g
             id="g1491">
            <path
               d="m 12,106.5 h 6.75 v 6.75 H 12 Z"
               style="fill:url(#linearGradient1503);fill-opacity:1;fill-rule:evenodd;stroke:none"
               id="path1505"
               inkscape:connector-curvature="0" />
          </g>
          <g
             id="g1507">
            <g
               id="g1509"
               clip-path="url(#clipPath1513)">
              <text
                 transform="matrix(1,0,0,-1,21.825,106.22)"
                 style="font-variant:normal;font-weight:normal;font-size:12.02499962px;font-family:Calibri;-inkscape-font-specification:Calibri;writing-mode:lr-tb;fill:#000000;fill-opacity:1;fill-rule:nonzero;stroke:none"
                 id="text1517">
                <tspan
                   x="0 8.2611752 14.2857 20.298201"
                   y="0"
                   sodipodi:role="line"
                   id="tspan1515">OPEX</tspan>
              </text>
            </g>
          </g>
          <path
             d="m 601.5,162 12.26,66.37 c -4.04,0.75 -8.15,1.13 -12.26,1.13 z"
             style="fill:#ffff00;fill-opacity:1;fill-rule:evenodd;stroke:none"
             id="path1519"
             inkscape:connector-curvature="0" />
          <g
             id="g1521">
            <path
               d="m 613.76,228.37 c 6.2,-1.14 12.2,-3.15 17.84,-5.96 v 0 L 601.5,162 Z"
               style="fill:url(#linearGradient1533);fill-opacity:1;fill-rule:evenodd;stroke:none"
               id="path1535"
               inkscape:connector-curvature="0" />
          </g>
          <g
             id="g1537">
            <path
               d="m 631.6,222.41 c 33.37,-16.62 46.94,-57.14 30.32,-90.51 -16.63,-33.37 -57.15,-46.944 -90.52,-30.32 -11.3,5.63 -20.8,14.32 -27.42,25.09 v 0 L 601.5,162 Z"
               style="fill:url(#linearGradient1553);fill-opacity:1;fill-rule:evenodd;stroke:none"
               id="path1555"
               inkscape:connector-curvature="0" />
          </g>
          <g
             id="g1557">
            <path
               d="m 543.98,126.67 c -8.81,14.34 -11.94,31.47 -8.78,48.01 v 0 L 601.5,162 Z"
               style="fill:url(#linearGradient1569);fill-opacity:1;fill-rule:evenodd;stroke:none"
               id="path1571"
               inkscape:connector-curvature="0" />
          </g>
          <g
             id="g1573">
            <path
               d="m 535.2,174.68 c 2.07,10.8 6.74,20.93 13.62,29.52 v 0 L 601.5,162 Z"
               style="fill:url(#linearGradient1585);fill-opacity:1;fill-rule:evenodd;stroke:none"
               id="path1587"
               inkscape:connector-curvature="0" />
          </g>
          <g
             id="g1589">
            <path
               d="m 548.82,204.2 c 12.81,15.99 32.19,25.3 52.68,25.3 v 0 -67.5 z"
               style="fill:url(#linearGradient1601);fill-opacity:1;fill-rule:evenodd;stroke:none"
               id="path1603"
               inkscape:connector-curvature="0" />
          </g>
          <g
             id="g1605">
            <g
               id="g1607"
               clip-path="url(#clipPath1611)">
              <text
                 transform="matrix(1,0,0,-1,603.13,236.77)"
                 style="font-variant:normal;font-weight:bold;font-size:14.27499962px;font-family:Calibri;-inkscape-font-specification:'Calibri Bold';writing-mode:lr-tb;fill:#000000;fill-opacity:1;fill-rule:nonzero;stroke:none"
                 id="text1615">
                <tspan
                   x="0 7.5004249"
                   y="0"
                   sodipodi:role="line"
                   id="tspan1613">3%</tspan>
              </text>
            </g>
          </g>
          <g
             id="g1617">
            <g
               id="g1619"
               clip-path="url(#clipPath1623)">
              <text
                 transform="matrix(1,0,0,-1,627.75,233.72)"
                 style="font-variant:normal;font-weight:bold;font-size:14.27499962px;font-family:Calibri;-inkscape-font-specification:'Calibri Bold';writing-mode:lr-tb;fill:#000000;fill-opacity:1;fill-rule:nonzero;stroke:none"
                 id="text1627">
                <tspan
                   x="0 7.5004249"
                   y="0"
                   sodipodi:role="line"
                   id="tspan1625">4%</tspan>
              </text>
            </g>
          </g>
          <g
             id="g1629">
            <g
               id="g1631"
               clip-path="url(#clipPath1635)">
              <text
                 transform="matrix(1,0,0,-1,657.5,100.3)"
                 style="font-variant:normal;font-weight:bold;font-size:14.27499962px;font-family:Calibri;-inkscape-font-specification:'Calibri Bold';writing-mode:lr-tb;fill:#000000;fill-opacity:1;fill-rule:nonzero;stroke:none"
                 id="text1639">
                <tspan
                   x="0 7.5004249 15.00085"
                   y="0"
                   sodipodi:role="line"
                   id="tspan1637">59%</tspan>
              </text>
            </g>
          </g>
          <g
             id="g1641">
            <g
               id="g1643"
               clip-path="url(#clipPath1647)">
              <text
                 transform="matrix(1,0,0,-1,504.32,142.47)"
                 style="font-variant:normal;font-weight:bold;font-size:14.27499962px;font-family:Calibri;-inkscape-font-specification:'Calibri Bold';writing-mode:lr-tb;fill:#000000;fill-opacity:1;fill-rule:nonzero;stroke:none"
                 id="text1651">
                <tspan
                   x="0 7.5004249 15.00085"
                   y="0"
                   sodipodi:role="line"
                   id="tspan1649">12%</tspan>
              </text>
            </g>
          </g>
          <path
             d="M 513.75,186 H 537 v 20.25 h -23.25 z"
             style="fill:#ffffff;fill-opacity:1;fill-rule:evenodd;stroke:none"
             id="path1653"
             inkscape:connector-curvature="0" />
          <g
             id="g1655">
            <g
               id="g1657"
               clip-path="url(#clipPath1661)">
              <text
                 transform="matrix(1,0,0,-1,517.05,191.07)"
                 style="font-variant:normal;font-weight:bold;font-size:14.27499962px;font-family:Calibri;-inkscape-font-specification:'Calibri Bold';writing-mode:lr-tb;fill:#000000;fill-opacity:1;fill-rule:nonzero;stroke:none"
                 id="text1665">
                <tspan
                   x="0 7.5004249"
                   y="0"
                   sodipodi:role="line"
                   id="tspan1663">8%</tspan>
              </text>
            </g>
          </g>
          <g
             id="g1667">
            <g
               id="g1669"
               clip-path="url(#clipPath1673)">
              <text
                 transform="matrix(1,0,0,-1,540.4,220.4)"
                 style="font-variant:normal;font-weight:bold;font-size:14.27499962px;font-family:Calibri;-inkscape-font-specification:'Calibri Bold';writing-mode:lr-tb;fill:#000000;fill-opacity:1;fill-rule:nonzero;stroke:none"
                 id="text1677">
                <tspan
                   x="0 7.5004249 15.00085"
                   y="0"
                   sodipodi:role="line"
                   id="tspan1675">14%</tspan>
              </text>
            </g>
          </g>
          <g
             id="g1679">
            <path
               d="m 304.13,280.12 300.5,-51.03"
               style="fill:none;stroke:#d9d9d9;stroke-width:2.25;stroke-linecap:butt;stroke-linejoin:round;stroke-miterlimit:10;stroke-dasharray:6.75, 2.25;stroke-dashoffset:0;stroke-opacity:1"
               id="path1681"
               inkscape:connector-curvature="0" />
          </g>
          <path
             d="m 394.98,276.61 c -0.09,-0.61 -0.28,-1.13 -0.56,-1.58 -0.29,-0.45 -0.65,-0.8 -1.08,-1.07 -0.44,-0.27 -0.94,-0.45 -1.51,-0.54 -0.56,-0.1 -1.18,-0.09 -1.84,0.01 -0.35,0.05 -0.67,0.12 -0.98,0.21 -0.31,0.1 -0.58,0.19 -0.82,0.3 -0.24,0.1 -0.43,0.2 -0.58,0.29 -0.15,0.09 -0.24,0.16 -0.29,0.21 -0.04,0.05 -0.07,0.11 -0.08,0.16 -0.02,0.06 -0.03,0.12 -0.03,0.2 -0.01,0.07 0,0.17 0.01,0.28 0.01,0.11 0.03,0.24 0.05,0.39 0.02,0.16 0.05,0.3 0.08,0.41 0.03,0.11 0.06,0.2 0.1,0.26 0.03,0.07 0.07,0.11 0.11,0.14 0.04,0.02 0.08,0.03 0.13,0.02 0.06,-0.01 0.14,-0.05 0.25,-0.14 0.11,-0.08 0.25,-0.18 0.44,-0.29 0.18,-0.11 0.4,-0.22 0.67,-0.33 0.27,-0.11 0.6,-0.19 0.98,-0.25 0.34,-0.05 0.65,-0.06 0.94,-0.03 0.28,0.02 0.53,0.1 0.75,0.22 0.21,0.13 0.39,0.3 0.53,0.51 0.14,0.22 0.23,0.49 0.28,0.81 0.04,0.28 0.04,0.54 -0.02,0.77 -0.05,0.23 -0.16,0.43 -0.32,0.61 -0.16,0.18 -0.39,0.33 -0.67,0.45 -0.29,0.12 -0.64,0.21 -1.06,0.28 -0.34,0.05 -0.65,0.08 -0.93,0.08 -0.28,0.01 -0.54,0.03 -0.78,0.07 -0.17,0.02 -0.28,0.08 -0.34,0.18 -0.06,0.09 -0.08,0.25 -0.04,0.48 l 0.74,4.88 c 0.03,0.24 0.1,0.4 0.21,0.48 0.1,0.09 0.26,0.12 0.45,0.09 l 5.33,-0.81 c 0.05,-0.01 0.1,-0.03 0.14,-0.07 0.04,-0.04 0.07,-0.1 0.09,-0.18 0.02,-0.09 0.03,-0.19 0.02,-0.32 0,-0.12 -0.01,-0.27 -0.04,-0.45 -0.05,-0.34 -0.12,-0.59 -0.21,-0.74 -0.08,-0.15 -0.18,-0.21 -0.3,-0.19 l -3.99,0.6 -0.37,-2.4 c 0.21,-0.01 0.41,-0.03 0.61,-0.05 0.2,-0.03 0.41,-0.06 0.63,-0.09 0.61,-0.09 1.14,-0.24 1.59,-0.46 0.45,-0.21 0.82,-0.48 1.1,-0.8 0.28,-0.33 0.47,-0.71 0.57,-1.14 0.11,-0.43 0.12,-0.92 0.04,-1.46 z m 9.54,0.62 c -0.14,-0.9 -0.34,-1.7 -0.59,-2.4 -0.26,-0.7 -0.58,-1.29 -0.99,-1.75 -0.4,-0.46 -0.89,-0.78 -1.45,-0.98 -0.57,-0.19 -1.23,-0.23 -1.99,-0.11 -0.77,0.11 -1.39,0.34 -1.85,0.68 -0.47,0.34 -0.81,0.78 -1.03,1.32 -0.22,0.54 -0.34,1.18 -0.35,1.91 -0.01,0.74 0.06,1.56 0.19,2.46 0.14,0.89 0.34,1.69 0.59,2.39 0.26,0.71 0.59,1.29 1,1.75 0.4,0.46 0.89,0.79 1.45,0.98 0.57,0.19 1.23,0.23 1.98,0.12 0.77,-0.12 1.39,-0.35 1.86,-0.69 0.46,-0.34 0.81,-0.78 1.03,-1.32 0.22,-0.54 0.33,-1.17 0.34,-1.91 0.01,-0.73 -0.06,-1.55 -0.19,-2.45 z m -2.32,0.23 c 0.08,0.54 0.13,1.01 0.17,1.42 0.03,0.42 0.04,0.78 0.02,1.09 -0.01,0.31 -0.05,0.57 -0.11,0.8 -0.06,0.22 -0.14,0.4 -0.25,0.55 -0.11,0.14 -0.24,0.25 -0.39,0.33 -0.16,0.07 -0.33,0.13 -0.53,0.16 -0.34,0.05 -0.64,0.01 -0.88,-0.12 -0.25,-0.13 -0.47,-0.36 -0.65,-0.67 -0.18,-0.31 -0.33,-0.7 -0.46,-1.19 -0.12,-0.48 -0.24,-1.05 -0.34,-1.71 -0.12,-0.8 -0.19,-1.46 -0.2,-2 -0.02,-0.53 0.02,-0.96 0.11,-1.29 0.09,-0.33 0.23,-0.58 0.43,-0.74 0.19,-0.15 0.44,-0.25 0.74,-0.3 0.23,-0.03 0.43,-0.03 0.62,0.02 0.18,0.04 0.35,0.13 0.5,0.26 0.15,0.12 0.29,0.29 0.41,0.49 0.12,0.21 0.23,0.45 0.33,0.74 0.1,0.28 0.19,0.6 0.26,0.96 0.08,0.36 0.15,0.76 0.22,1.2 z"
             style="fill:#bfbfbf;fill-opacity:1;fill-rule:nonzero;stroke:none"
             id="path1683"
             inkscape:connector-curvature="0" />
          <path
             d="m 409.62,275.13 c -0.05,-0.34 -0.12,-0.57 -0.2,-0.69 -0.09,-0.12 -0.2,-0.18 -0.34,-0.15 l -3.61,0.54 c -0.15,0.03 -0.24,0.11 -0.28,0.26 -0.05,0.14 -0.04,0.38 0.01,0.71 0.05,0.32 0.11,0.55 0.2,0.67 0.08,0.13 0.19,0.18 0.34,0.15 l 3.61,-0.54 c 0.07,-0.01 0.13,-0.04 0.18,-0.07 0.04,-0.04 0.08,-0.1 0.1,-0.17 0.02,-0.08 0.03,-0.17 0.03,-0.29 0,-0.12 -0.02,-0.26 -0.04,-0.42 z"
             style="fill:#bfbfbf;fill-opacity:1;fill-rule:nonzero;stroke:none"
             id="path1685"
             inkscape:connector-curvature="0" />
          <path
             d="m 419.07,279.74 c -0.03,-0.17 -0.05,-0.31 -0.08,-0.43 -0.03,-0.13 -0.07,-0.24 -0.1,-0.35 -0.04,-0.1 -0.08,-0.2 -0.13,-0.29 -0.05,-0.09 -0.11,-0.18 -0.17,-0.29 l -5,-8.01 c -0.05,-0.07 -0.1,-0.13 -0.17,-0.16 -0.06,-0.04 -0.14,-0.07 -0.24,-0.08 -0.11,-0.01 -0.23,-0.01 -0.39,0.01 -0.15,0.01 -0.34,0.04 -0.57,0.07 -0.31,0.05 -0.55,0.09 -0.73,0.14 -0.17,0.05 -0.3,0.1 -0.38,0.16 -0.07,0.05 -0.11,0.11 -0.11,0.18 0.01,0.07 0.04,0.15 0.1,0.24 l 5.31,8.17 -4.72,0.72 c -0.13,0.02 -0.21,0.11 -0.24,0.28 -0.04,0.17 -0.03,0.43 0.02,0.78 0.03,0.17 0.06,0.32 0.1,0.44 0.03,0.12 0.07,0.22 0.12,0.3 0.04,0.07 0.09,0.12 0.14,0.15 0.04,0.03 0.1,0.04 0.16,0.03 l 6.68,-1.01 c 0.1,-0.02 0.19,-0.04 0.25,-0.07 0.07,-0.03 0.12,-0.09 0.15,-0.16 0.03,-0.08 0.04,-0.18 0.05,-0.31 0,-0.13 -0.02,-0.3 -0.05,-0.51 z m 7.8,-7.96 c -0.1,-0.61 -0.28,-1.14 -0.57,-1.58 -0.28,-0.45 -0.64,-0.81 -1.08,-1.08 -0.43,-0.27 -0.93,-0.45 -1.5,-0.54 -0.57,-0.09 -1.18,-0.09 -1.84,0.01 -0.35,0.06 -0.68,0.13 -0.98,0.22 -0.31,0.09 -0.58,0.19 -0.82,0.29 -0.24,0.11 -0.43,0.2 -0.58,0.3 -0.15,0.09 -0.25,0.16 -0.29,0.21 -0.04,0.05 -0.07,0.1 -0.09,0.16 -0.01,0.05 -0.02,0.12 -0.03,0.19 0,0.08 0,0.17 0.01,0.28 0.02,0.11 0.03,0.24 0.06,0.39 0.02,0.17 0.05,0.3 0.08,0.41 0.02,0.12 0.06,0.2 0.09,0.27 0.04,0.07 0.08,0.11 0.12,0.13 0.04,0.03 0.08,0.04 0.13,0.03 0.05,-0.01 0.14,-0.06 0.25,-0.14 0.1,-0.09 0.25,-0.18 0.43,-0.29 0.18,-0.11 0.41,-0.22 0.68,-0.33 0.26,-0.11 0.59,-0.2 0.98,-0.25 0.34,-0.06 0.65,-0.07 0.93,-0.04 0.29,0.03 0.54,0.1 0.75,0.23 0.22,0.12 0.39,0.29 0.53,0.51 0.14,0.22 0.24,0.49 0.29,0.81 0.04,0.28 0.03,0.53 -0.02,0.76 -0.06,0.23 -0.16,0.44 -0.33,0.62 -0.16,0.18 -0.38,0.32 -0.67,0.44 -0.28,0.12 -0.63,0.22 -1.06,0.28 -0.33,0.05 -0.64,0.08 -0.92,0.09 -0.28,0 -0.54,0.03 -0.79,0.06 -0.16,0.03 -0.28,0.09 -0.34,0.18 -0.06,0.1 -0.07,0.26 -0.04,0.49 l 0.74,4.88 c 0.04,0.23 0.11,0.39 0.21,0.48 0.11,0.09 0.26,0.12 0.46,0.09 l 5.32,-0.81 c 0.06,-0.01 0.1,-0.03 0.14,-0.08 0.05,-0.04 0.08,-0.1 0.1,-0.18 0.02,-0.08 0.02,-0.18 0.02,-0.31 0,-0.13 -0.02,-0.28 -0.05,-0.45 -0.05,-0.35 -0.12,-0.6 -0.2,-0.74 -0.09,-0.15 -0.19,-0.21 -0.3,-0.2 l -4,0.61 -0.36,-2.41 c 0.2,-0.01 0.41,-0.02 0.61,-0.05 0.2,-0.02 0.41,-0.05 0.63,-0.08 0.61,-0.1 1.14,-0.25 1.59,-0.46 0.45,-0.22 0.81,-0.48 1.09,-0.81 0.28,-0.32 0.47,-0.7 0.58,-1.13 0.11,-0.44 0.12,-0.92 0.04,-1.46 z m 7.13,3.86 c -0.07,-0.46 -0.19,-0.86 -0.34,-1.22 -0.16,-0.35 -0.37,-0.64 -0.62,-0.87 -0.26,-0.23 -0.56,-0.39 -0.91,-0.48 -0.36,-0.1 -0.77,-0.11 -1.23,-0.04 -0.49,0.08 -0.9,0.21 -1.2,0.41 -0.31,0.19 -0.54,0.43 -0.7,0.72 -0.16,0.29 -0.25,0.62 -0.28,0.99 -0.03,0.37 -0.01,0.77 0.06,1.21 0.07,0.43 0.17,0.82 0.33,1.17 0.15,0.35 0.35,0.64 0.61,0.87 0.25,0.24 0.55,0.4 0.91,0.5 0.35,0.1 0.77,0.11 1.23,0.04 0.52,-0.08 0.93,-0.22 1.24,-0.43 0.31,-0.21 0.54,-0.46 0.69,-0.75 0.15,-0.3 0.24,-0.63 0.26,-0.99 0.02,-0.37 0,-0.74 -0.05,-1.13 z m -1.73,0.2 c 0.04,0.32 0.07,0.59 0.07,0.82 0,0.23 -0.03,0.42 -0.08,0.57 -0.05,0.14 -0.12,0.26 -0.23,0.34 -0.11,0.08 -0.24,0.14 -0.39,0.16 -0.15,0.02 -0.28,0.01 -0.4,-0.03 -0.12,-0.05 -0.23,-0.13 -0.32,-0.26 -0.09,-0.12 -0.17,-0.29 -0.24,-0.5 -0.07,-0.22 -0.12,-0.48 -0.17,-0.79 -0.06,-0.36 -0.08,-0.66 -0.08,-0.89 0.01,-0.24 0.04,-0.43 0.1,-0.57 0.05,-0.14 0.13,-0.24 0.23,-0.31 0.11,-0.06 0.23,-0.11 0.38,-0.13 0.16,-0.03 0.31,-0.01 0.43,0.04 0.12,0.05 0.22,0.14 0.31,0.26 0.09,0.13 0.16,0.3 0.22,0.52 0.07,0.21 0.12,0.47 0.17,0.77 z m 7.65,-6.85 c -0.07,-0.46 -0.18,-0.86 -0.34,-1.22 -0.16,-0.35 -0.36,-0.64 -0.62,-0.87 -0.25,-0.23 -0.55,-0.39 -0.91,-0.48 -0.35,-0.1 -0.76,-0.11 -1.23,-0.04 -0.49,0.08 -0.89,0.21 -1.2,0.41 -0.31,0.19 -0.54,0.43 -0.7,0.72 -0.16,0.29 -0.25,0.62 -0.27,0.99 -0.03,0.37 -0.01,0.77 0.05,1.21 0.07,0.43 0.18,0.82 0.33,1.17 0.16,0.35 0.36,0.64 0.61,0.87 0.25,0.24 0.56,0.4 0.91,0.5 0.36,0.1 0.77,0.11 1.24,0.04 0.52,-0.08 0.93,-0.22 1.24,-0.43 0.31,-0.21 0.54,-0.46 0.69,-0.75 0.15,-0.3 0.23,-0.63 0.26,-0.99 0.02,-0.37 0,-0.74 -0.06,-1.13 z m -1.73,0.2 c 0.05,0.32 0.07,0.59 0.07,0.82 0,0.23 -0.02,0.42 -0.07,0.57 -0.05,0.14 -0.13,0.26 -0.23,0.34 -0.11,0.08 -0.24,0.14 -0.4,0.16 -0.14,0.02 -0.27,0.01 -0.39,-0.03 -0.12,-0.05 -0.23,-0.13 -0.32,-0.26 -0.1,-0.12 -0.18,-0.29 -0.24,-0.5 -0.07,-0.22 -0.13,-0.48 -0.18,-0.79 -0.05,-0.36 -0.08,-0.66 -0.07,-0.89 0.01,-0.24 0.04,-0.43 0.09,-0.57 0.06,-0.14 0.14,-0.24 0.24,-0.31 0.1,-0.06 0.23,-0.11 0.37,-0.13 0.17,-0.03 0.31,-0.01 0.43,0.04 0.12,0.05 0.23,0.14 0.32,0.26 0.08,0.13 0.16,0.3 0.22,0.52 0.06,0.21 0.12,0.47 0.16,0.77 z m -7.84,-1.61 c -0.07,-0.06 -0.13,-0.11 -0.19,-0.15 -0.06,-0.03 -0.14,-0.06 -0.22,-0.08 -0.09,-0.01 -0.19,-0.02 -0.31,-0.01 -0.11,0 -0.26,0.02 -0.42,0.05 -0.2,0.02 -0.35,0.06 -0.46,0.1 -0.1,0.04 -0.18,0.09 -0.22,0.14 -0.04,0.05 -0.06,0.11 -0.04,0.17 0.02,0.06 0.07,0.13 0.14,0.21 l 9.68,9.76 c 0.06,0.05 0.12,0.1 0.18,0.14 0.06,0.04 0.13,0.06 0.22,0.08 0.09,0.02 0.19,0.02 0.31,0.02 0.12,-0.01 0.26,-0.03 0.43,-0.05 0.19,-0.03 0.34,-0.07 0.45,-0.11 0.11,-0.04 0.19,-0.08 0.23,-0.14 0.04,-0.05 0.05,-0.11 0.03,-0.17 -0.02,-0.06 -0.07,-0.13 -0.14,-0.2 z"
             style="fill:#bfbfbf;fill-opacity:1;fill-rule:nonzero;stroke:none"
             id="path1687"
             inkscape:connector-curvature="0" />
          <path
             d="m 451.25,271.84 c -0.03,-0.21 -0.06,-0.38 -0.1,-0.51 -0.03,-0.13 -0.06,-0.23 -0.1,-0.31 -0.03,-0.07 -0.07,-0.11 -0.11,-0.14 -0.04,-0.02 -0.09,-0.03 -0.15,-0.02 -0.05,0.01 -0.1,0.03 -0.15,0.05 -0.06,0.03 -0.12,0.07 -0.19,0.1 -0.07,0.03 -0.14,0.07 -0.23,0.1 -0.08,0.03 -0.18,0.06 -0.28,0.07 -0.12,0.02 -0.25,0.02 -0.38,-0.01 -0.12,-0.03 -0.26,-0.09 -0.41,-0.18 -0.14,-0.08 -0.3,-0.2 -0.47,-0.35 -0.17,-0.15 -0.35,-0.35 -0.55,-0.58 l -0.74,-4.83 c -0.01,-0.06 -0.03,-0.1 -0.07,-0.14 -0.04,-0.04 -0.11,-0.07 -0.2,-0.08 -0.08,-0.02 -0.2,-0.02 -0.34,-0.02 -0.14,0.01 -0.32,0.03 -0.53,0.06 -0.22,0.03 -0.39,0.07 -0.53,0.1 -0.14,0.04 -0.25,0.08 -0.33,0.12 -0.08,0.04 -0.13,0.09 -0.16,0.13 -0.03,0.05 -0.04,0.11 -0.03,0.16 l 1.18,7.76 c 0.01,0.05 0.03,0.1 0.07,0.14 0.03,0.04 0.09,0.07 0.17,0.09 0.08,0.01 0.18,0.02 0.3,0.02 0.12,-0.01 0.27,-0.02 0.45,-0.05 0.19,-0.03 0.34,-0.06 0.46,-0.09 0.12,-0.03 0.21,-0.07 0.27,-0.11 0.06,-0.04 0.1,-0.08 0.13,-0.13 0.02,-0.05 0.03,-0.1 0.02,-0.16 l -0.15,-0.96 c 0.25,0.26 0.47,0.47 0.68,0.63 0.21,0.16 0.4,0.28 0.58,0.37 0.18,0.08 0.36,0.14 0.53,0.15 0.16,0.02 0.33,0.02 0.49,0 0.08,-0.02 0.16,-0.03 0.24,-0.05 0.09,-0.03 0.18,-0.05 0.27,-0.09 0.09,-0.03 0.16,-0.07 0.23,-0.1 0.06,-0.04 0.11,-0.08 0.14,-0.11 0.03,-0.03 0.04,-0.07 0.05,-0.11 0.01,-0.03 0.02,-0.08 0.02,-0.15 0,-0.06 0,-0.15 -0.01,-0.27 -0.02,-0.13 -0.04,-0.29 -0.07,-0.5 z m 8.41,-4.27 c -0.04,-0.27 -0.13,-0.46 -0.27,-0.57 -0.14,-0.1 -0.31,-0.14 -0.52,-0.11 l -4.72,0.71 c -0.05,-0.33 -0.05,-0.63 -0.02,-0.91 0.04,-0.28 0.13,-0.53 0.27,-0.75 0.15,-0.21 0.34,-0.39 0.6,-0.53 0.25,-0.14 0.57,-0.23 0.95,-0.29 0.38,-0.06 0.72,-0.08 1.02,-0.07 0.29,0.01 0.55,0.03 0.78,0.07 0.22,0.03 0.4,0.07 0.55,0.1 0.15,0.03 0.26,0.04 0.35,0.03 0.05,-0.01 0.09,-0.02 0.13,-0.05 0.03,-0.03 0.05,-0.07 0.07,-0.12 0.01,-0.06 0.02,-0.13 0.01,-0.23 -0.01,-0.1 -0.02,-0.22 -0.04,-0.36 -0.02,-0.13 -0.04,-0.24 -0.06,-0.33 -0.02,-0.09 -0.04,-0.16 -0.06,-0.22 -0.02,-0.07 -0.05,-0.12 -0.08,-0.16 -0.03,-0.04 -0.06,-0.07 -0.11,-0.11 -0.04,-0.03 -0.15,-0.07 -0.33,-0.12 -0.18,-0.04 -0.4,-0.08 -0.67,-0.1 -0.28,-0.03 -0.58,-0.04 -0.93,-0.04 -0.34,0 -0.7,0.03 -1.08,0.09 -0.69,0.1 -1.28,0.28 -1.78,0.53 -0.49,0.26 -0.88,0.58 -1.18,0.99 -0.29,0.41 -0.48,0.89 -0.57,1.46 -0.09,0.56 -0.08,1.21 0.03,1.93 0.1,0.69 0.29,1.3 0.55,1.82 0.27,0.53 0.6,0.96 1,1.29 0.4,0.34 0.86,0.57 1.38,0.7 0.52,0.12 1.09,0.14 1.7,0.05 0.65,-0.1 1.19,-0.28 1.62,-0.54 0.43,-0.26 0.77,-0.58 1.01,-0.97 0.25,-0.38 0.4,-0.82 0.47,-1.3 0.07,-0.48 0.06,-1 -0.02,-1.54 z m -2.03,0.95 c 0.11,0.61 0.06,1.11 -0.15,1.5 -0.21,0.39 -0.59,0.63 -1.14,0.71 -0.28,0.04 -0.52,0.03 -0.75,-0.05 -0.22,-0.07 -0.41,-0.18 -0.57,-0.34 -0.17,-0.16 -0.3,-0.35 -0.41,-0.58 -0.11,-0.23 -0.19,-0.48 -0.24,-0.75 z m 10.5,-6.43 c -0.01,-0.06 -0.04,-0.12 -0.07,-0.16 -0.04,-0.03 -0.09,-0.06 -0.17,-0.08 -0.07,-0.02 -0.17,-0.03 -0.29,-0.02 -0.12,0.01 -0.26,0.02 -0.44,0.05 -0.18,0.03 -0.33,0.06 -0.45,0.09 -0.11,0.02 -0.2,0.06 -0.27,0.1 -0.07,0.04 -0.12,0.08 -0.14,0.13 -0.03,0.05 -0.03,0.11 -0.02,0.17 l 0.13,0.86 c -0.47,-0.37 -0.94,-0.64 -1.41,-0.81 -0.47,-0.17 -0.98,-0.22 -1.51,-0.13 -0.59,0.08 -1.07,0.28 -1.45,0.57 -0.37,0.29 -0.66,0.65 -0.86,1.07 -0.2,0.43 -0.31,0.91 -0.35,1.45 -0.04,0.53 -0.01,1.09 0.07,1.66 0.11,0.69 0.28,1.3 0.51,1.83 0.23,0.53 0.52,0.96 0.86,1.31 0.34,0.34 0.74,0.59 1.19,0.73 0.46,0.15 0.96,0.18 1.51,0.09 0.44,-0.06 0.82,-0.21 1.14,-0.44 0.33,-0.23 0.64,-0.54 0.94,-0.94 l 0.63,4.2 c 0.01,0.06 0.04,0.11 0.07,0.15 0.04,0.04 0.11,0.07 0.2,0.09 0.09,0.02 0.2,0.03 0.34,0.02 0.14,0 0.32,-0.02 0.54,-0.05 0.21,-0.03 0.39,-0.07 0.52,-0.11 0.14,-0.04 0.24,-0.08 0.32,-0.12 0.08,-0.05 0.13,-0.09 0.16,-0.15 0.02,-0.05 0.03,-0.1 0.03,-0.16 z m -1.39,5.51 c -0.25,0.44 -0.51,0.79 -0.76,1.04 -0.26,0.25 -0.54,0.4 -0.85,0.45 -0.29,0.04 -0.54,0.01 -0.77,-0.1 -0.23,-0.12 -0.42,-0.28 -0.58,-0.5 -0.16,-0.22 -0.3,-0.47 -0.4,-0.75 -0.11,-0.29 -0.18,-0.58 -0.23,-0.89 -0.05,-0.32 -0.07,-0.64 -0.06,-0.96 0,-0.31 0.05,-0.6 0.13,-0.86 0.08,-0.25 0.21,-0.47 0.38,-0.65 0.18,-0.17 0.42,-0.28 0.72,-0.33 0.15,-0.02 0.3,-0.02 0.45,0 0.15,0.02 0.3,0.07 0.46,0.15 0.17,0.07 0.34,0.18 0.52,0.32 0.18,0.13 0.38,0.3 0.6,0.51 z m 11.03,-6.97 c -0.01,-0.06 -0.03,-0.11 -0.07,-0.15 -0.04,-0.04 -0.09,-0.07 -0.17,-0.08 -0.08,-0.02 -0.17,-0.03 -0.29,-0.03 -0.13,0.01 -0.28,0.02 -0.46,0.05 -0.19,0.03 -0.34,0.06 -0.46,0.09 -0.11,0.04 -0.2,0.07 -0.27,0.11 -0.06,0.04 -0.11,0.08 -0.13,0.13 -0.02,0.05 -0.03,0.1 -0.02,0.16 l 0.13,0.9 c -0.49,-0.4 -0.98,-0.68 -1.46,-0.85 -0.48,-0.16 -0.96,-0.21 -1.43,-0.14 -0.53,0.08 -0.97,0.24 -1.3,0.47 -0.34,0.23 -0.6,0.51 -0.77,0.84 -0.18,0.34 -0.29,0.71 -0.32,1.12 -0.04,0.41 -0.01,0.91 0.08,1.51 l 0.72,4.74 c 0.01,0.06 0.03,0.11 0.07,0.14 0.04,0.04 0.1,0.07 0.19,0.09 0.09,0.01 0.2,0.02 0.35,0.01 0.14,-0.01 0.32,-0.03 0.53,-0.06 0.21,-0.03 0.39,-0.06 0.52,-0.1 0.14,-0.03 0.25,-0.07 0.33,-0.12 0.08,-0.04 0.13,-0.08 0.16,-0.13 0.03,-0.05 0.04,-0.1 0.03,-0.16 l -0.67,-4.38 c -0.06,-0.41 -0.08,-0.72 -0.06,-0.94 0.02,-0.22 0.07,-0.42 0.16,-0.59 0.08,-0.17 0.2,-0.31 0.35,-0.42 0.15,-0.11 0.34,-0.18 0.56,-0.21 0.28,-0.04 0.57,0.01 0.88,0.17 0.32,0.17 0.66,0.42 1.04,0.75 l 0.78,5.16 c 0.01,0.06 0.03,0.1 0.07,0.14 0.04,0.04 0.1,0.07 0.19,0.09 0.09,0.01 0.2,0.02 0.35,0.01 0.14,-0.01 0.31,-0.03 0.53,-0.06 0.21,-0.03 0.39,-0.07 0.53,-0.1 0.13,-0.04 0.24,-0.08 0.32,-0.12 0.07,-0.04 0.12,-0.08 0.15,-0.13 0.03,-0.05 0.04,-0.1 0.03,-0.16 z m 8.34,-0.01 c -0.03,-0.15 -0.05,-0.27 -0.07,-0.37 -0.03,-0.1 -0.05,-0.18 -0.08,-0.25 -0.02,-0.07 -0.05,-0.12 -0.07,-0.16 -0.03,-0.04 -0.08,-0.09 -0.16,-0.15 -0.08,-0.05 -0.21,-0.12 -0.4,-0.19 -0.18,-0.07 -0.38,-0.12 -0.61,-0.17 -0.23,-0.04 -0.47,-0.07 -0.73,-0.07 -0.26,-0.01 -0.52,0 -0.78,0.04 -0.6,0.1 -1.12,0.27 -1.55,0.52 -0.43,0.26 -0.78,0.59 -1.03,1 -0.26,0.41 -0.43,0.89 -0.51,1.43 -0.08,0.55 -0.07,1.16 0.03,1.83 0.12,0.78 0.32,1.43 0.6,1.97 0.28,0.53 0.62,0.96 1.02,1.28 0.41,0.32 0.86,0.53 1.36,0.64 0.5,0.1 1.04,0.11 1.61,0.03 0.23,-0.04 0.45,-0.09 0.67,-0.17 0.22,-0.07 0.42,-0.16 0.6,-0.26 0.18,-0.1 0.35,-0.2 0.49,-0.31 0.14,-0.11 0.23,-0.2 0.29,-0.28 0.05,-0.07 0.09,-0.13 0.11,-0.18 0.02,-0.04 0.03,-0.1 0.03,-0.18 0.01,-0.07 0.01,-0.15 0,-0.26 -0.01,-0.1 -0.02,-0.22 -0.04,-0.37 -0.05,-0.33 -0.12,-0.57 -0.2,-0.69 -0.08,-0.13 -0.16,-0.19 -0.26,-0.17 -0.09,0.01 -0.19,0.07 -0.29,0.17 -0.1,0.09 -0.21,0.2 -0.35,0.32 -0.14,0.13 -0.3,0.24 -0.5,0.36 -0.19,0.11 -0.44,0.19 -0.73,0.23 -0.56,0.09 -1.03,-0.07 -1.4,-0.46 -0.37,-0.39 -0.61,-1.01 -0.74,-1.85 -0.07,-0.42 -0.08,-0.79 -0.06,-1.12 0.03,-0.33 0.1,-0.62 0.22,-0.86 0.11,-0.23 0.27,-0.42 0.48,-0.56 0.21,-0.14 0.46,-0.24 0.75,-0.28 0.3,-0.05 0.57,-0.04 0.8,0.02 0.23,0.05 0.44,0.12 0.61,0.21 0.18,0.09 0.34,0.16 0.46,0.24 0.12,0.07 0.22,0.1 0.3,0.09 0.05,-0.01 0.09,-0.03 0.12,-0.06 0.03,-0.04 0.05,-0.09 0.06,-0.18 0.01,-0.08 0.01,-0.18 0,-0.3 -0.01,-0.13 -0.02,-0.28 -0.05,-0.48 z m 6.06,-1.39 c -0.03,-0.26 -0.08,-0.45 -0.13,-0.58 -0.05,-0.14 -0.11,-0.22 -0.17,-0.27 -0.06,-0.05 -0.15,-0.09 -0.25,-0.11 -0.11,-0.03 -0.24,-0.05 -0.38,-0.06 -0.14,-0.01 -0.29,-0.02 -0.45,-0.01 -0.16,0.01 -0.33,0.02 -0.49,0.05 -0.43,0.06 -0.8,0.17 -1.1,0.33 -0.3,0.16 -0.54,0.37 -0.72,0.63 -0.17,0.26 -0.28,0.57 -0.33,0.94 -0.04,0.36 -0.03,0.78 0.04,1.25 l 0.61,3.97 -0.93,0.14 c -0.11,0.02 -0.19,0.1 -0.23,0.25 -0.03,0.14 -0.03,0.37 0.02,0.69 0.03,0.17 0.06,0.31 0.09,0.42 0.03,0.12 0.06,0.21 0.1,0.27 0.04,0.06 0.09,0.1 0.13,0.13 0.05,0.02 0.11,0.02 0.16,0.02 l 0.92,-0.14 0.27,1.73 c 0.01,0.05 0.03,0.1 0.07,0.14 0.04,0.05 0.1,0.08 0.19,0.1 0.09,0.01 0.2,0.02 0.35,0.01 0.14,0 0.32,-0.02 0.53,-0.05 0.21,-0.04 0.39,-0.07 0.53,-0.11 0.14,-0.03 0.25,-0.07 0.32,-0.12 0.08,-0.04 0.13,-0.09 0.16,-0.14 0.03,-0.05 0.04,-0.11 0.03,-0.17 l -0.26,-1.72 1.68,-0.26 c 0.06,-0.01 0.11,-0.03 0.15,-0.07 0.04,-0.03 0.06,-0.09 0.08,-0.16 0.02,-0.07 0.03,-0.16 0.03,-0.28 -0.01,-0.12 -0.02,-0.26 -0.05,-0.43 -0.04,-0.32 -0.11,-0.54 -0.19,-0.67 -0.07,-0.13 -0.17,-0.18 -0.28,-0.16 l -1.69,0.25 -0.56,-3.64 c -0.06,-0.42 -0.04,-0.75 0.06,-0.98 0.1,-0.23 0.32,-0.37 0.66,-0.43 0.12,-0.01 0.23,-0.02 0.32,-0.01 0.1,0 0.18,0.01 0.26,0.03 0.08,0.01 0.14,0.03 0.19,0.04 0.06,0.01 0.1,0.02 0.14,0.01 0.04,0 0.07,-0.02 0.1,-0.04 0.03,-0.03 0.04,-0.07 0.05,-0.14 0.01,-0.06 0.01,-0.15 0.01,-0.25 0,-0.11 -0.01,-0.24 -0.04,-0.4 z m 3.42,-1.31 c -0.01,-0.05 -0.03,-0.1 -0.07,-0.14 -0.04,-0.04 -0.11,-0.07 -0.2,-0.08 -0.09,-0.02 -0.2,-0.02 -0.34,-0.02 -0.14,0.01 -0.32,0.03 -0.54,0.06 -0.21,0.04 -0.39,0.07 -0.52,0.11 -0.14,0.03 -0.25,0.07 -0.33,0.11 -0.08,0.04 -0.13,0.09 -0.16,0.14 -0.03,0.05 -0.04,0.1 -0.03,0.16 l 1.18,7.73 c 0,0.06 0.03,0.11 0.07,0.14 0.04,0.04 0.11,0.07 0.2,0.09 0.08,0.02 0.2,0.03 0.34,0.02 0.14,0 0.32,-0.02 0.54,-0.05 0.21,-0.03 0.39,-0.07 0.52,-0.11 0.14,-0.04 0.25,-0.08 0.32,-0.12 0.08,-0.05 0.14,-0.09 0.17,-0.14 0.02,-0.05 0.03,-0.1 0.03,-0.16 z m 1.74,10.36 c -0.07,-0.45 -0.2,-0.74 -0.41,-0.88 -0.2,-0.14 -0.55,-0.17 -1.03,-0.1 -0.5,0.08 -0.82,0.21 -0.96,0.4 -0.15,0.19 -0.19,0.49 -0.13,0.91 0.07,0.44 0.21,0.74 0.41,0.88 0.2,0.14 0.55,0.18 1.04,0.1 0.49,-0.07 0.8,-0.2 0.95,-0.39 0.15,-0.19 0.19,-0.5 0.13,-0.92 z m 8.96,-7.93 c -0.1,-0.66 -0.28,-1.25 -0.54,-1.77 -0.25,-0.52 -0.59,-0.95 -1,-1.29 -0.41,-0.34 -0.9,-0.58 -1.47,-0.71 -0.56,-0.13 -1.2,-0.15 -1.91,-0.04 -0.69,0.11 -1.28,0.29 -1.76,0.56 -0.48,0.27 -0.86,0.61 -1.14,1.03 -0.28,0.41 -0.46,0.9 -0.55,1.46 -0.08,0.56 -0.07,1.18 0.04,1.86 0.1,0.66 0.28,1.25 0.54,1.77 0.26,0.52 0.59,0.95 1.01,1.29 0.41,0.34 0.9,0.57 1.46,0.71 0.56,0.13 1.2,0.14 1.91,0.04 0.7,-0.11 1.29,-0.3 1.77,-0.56 0.48,-0.27 0.86,-0.61 1.14,-1.02 0.27,-0.42 0.45,-0.9 0.53,-1.46 0.09,-0.56 0.07,-1.18 -0.03,-1.87 z m -2.26,0.25 c 0.05,0.38 0.08,0.74 0.06,1.07 -0.01,0.33 -0.07,0.63 -0.18,0.89 -0.11,0.26 -0.27,0.47 -0.49,0.64 -0.22,0.17 -0.51,0.28 -0.88,0.34 -0.32,0.05 -0.62,0.03 -0.88,-0.05 -0.26,-0.08 -0.48,-0.23 -0.68,-0.43 -0.19,-0.21 -0.35,-0.46 -0.47,-0.77 -0.13,-0.31 -0.22,-0.67 -0.29,-1.09 -0.05,-0.38 -0.08,-0.73 -0.06,-1.07 0.01,-0.33 0.07,-0.62 0.18,-0.88 0.11,-0.26 0.27,-0.47 0.49,-0.64 0.23,-0.17 0.52,-0.28 0.88,-0.33 0.33,-0.05 0.62,-0.04 0.89,0.04 0.26,0.09 0.48,0.23 0.67,0.43 0.19,0.2 0.35,0.46 0.48,0.77 0.12,0.31 0.21,0.67 0.28,1.08 z M 514.9,255 c -0.01,-0.06 -0.04,-0.11 -0.08,-0.15 -0.04,-0.03 -0.1,-0.06 -0.19,-0.08 -0.09,-0.02 -0.2,-0.02 -0.34,-0.01 -0.15,0 -0.33,0.02 -0.53,0.05 -0.22,0.04 -0.4,0.07 -0.53,0.11 -0.14,0.03 -0.25,0.07 -0.33,0.11 -0.08,0.04 -0.13,0.09 -0.16,0.14 -0.03,0.05 -0.03,0.1 -0.03,0.16 l 0.67,4.42 c 0.06,0.38 0.08,0.68 0.06,0.9 -0.03,0.22 -0.08,0.42 -0.16,0.59 -0.08,0.17 -0.2,0.31 -0.35,0.42 -0.15,0.11 -0.34,0.18 -0.56,0.21 -0.28,0.04 -0.57,-0.02 -0.89,-0.18 -0.31,-0.16 -0.65,-0.41 -1.02,-0.75 l -0.78,-5.15 c -0.01,-0.06 -0.03,-0.11 -0.07,-0.15 -0.05,-0.03 -0.11,-0.06 -0.2,-0.08 -0.09,-0.01 -0.2,-0.02 -0.34,-0.01 -0.14,0 -0.32,0.02 -0.54,0.06 -0.21,0.03 -0.39,0.06 -0.52,0.1 -0.14,0.03 -0.25,0.07 -0.33,0.11 -0.08,0.05 -0.13,0.09 -0.16,0.14 -0.03,0.05 -0.04,0.1 -0.03,0.16 l 1.18,7.75 c 0.01,0.06 0.03,0.11 0.06,0.15 0.04,0.04 0.1,0.06 0.18,0.08 0.08,0.02 0.18,0.03 0.3,0.02 0.12,0 0.27,-0.02 0.45,-0.04 0.18,-0.03 0.34,-0.06 0.46,-0.09 0.11,-0.04 0.21,-0.07 0.27,-0.11 0.06,-0.04 0.1,-0.09 0.12,-0.13 0.03,-0.05 0.03,-0.1 0.03,-0.16 l -0.14,-0.9 c 0.5,0.4 0.99,0.68 1.47,0.85 0.47,0.16 0.95,0.21 1.43,0.14 0.53,-0.08 0.96,-0.24 1.3,-0.47 0.33,-0.23 0.59,-0.51 0.77,-0.84 0.18,-0.33 0.28,-0.7 0.32,-1.12 0.04,-0.41 0.02,-0.9 -0.07,-1.46 z m 7.39,-1.12 c -0.01,-0.06 -0.04,-0.11 -0.08,-0.15 -0.04,-0.04 -0.1,-0.06 -0.19,-0.08 -0.09,-0.02 -0.21,-0.02 -0.35,-0.01 -0.14,0 -0.32,0.02 -0.53,0.06 -0.21,0.03 -0.39,0.06 -0.53,0.1 -0.13,0.03 -0.24,0.07 -0.32,0.11 -0.08,0.05 -0.14,0.09 -0.16,0.14 -0.03,0.05 -0.04,0.1 -0.03,0.16 l 1.17,7.73 c 0.01,0.06 0.03,0.11 0.08,0.15 0.04,0.04 0.1,0.06 0.19,0.08 0.09,0.02 0.2,0.03 0.35,0.03 0.14,-0.01 0.32,-0.03 0.53,-0.06 0.21,-0.03 0.39,-0.07 0.53,-0.1 0.13,-0.04 0.24,-0.08 0.32,-0.13 0.08,-0.04 0.13,-0.09 0.16,-0.14 0.03,-0.05 0.04,-0.1 0.03,-0.16 z m 1.74,10.35 c -0.07,-0.44 -0.21,-0.73 -0.41,-0.87 -0.21,-0.14 -0.55,-0.18 -1.04,-0.1 -0.49,0.07 -0.81,0.2 -0.96,0.39 -0.14,0.19 -0.19,0.49 -0.12,0.92 0.07,0.44 0.2,0.73 0.4,0.87 0.21,0.15 0.55,0.18 1.05,0.11 0.48,-0.08 0.8,-0.21 0.95,-0.4 0.15,-0.19 0.19,-0.5 0.13,-0.92 z m 7.92,-11.82 c -0.01,-0.06 -0.03,-0.1 -0.07,-0.14 -0.05,-0.04 -0.11,-0.07 -0.2,-0.08 -0.08,-0.02 -0.2,-0.03 -0.34,-0.02 -0.14,0.01 -0.32,0.03 -0.53,0.06 -0.21,0.03 -0.39,0.07 -0.53,0.1 -0.14,0.04 -0.25,0.08 -0.32,0.12 -0.08,0.04 -0.13,0.08 -0.16,0.13 -0.03,0.05 -0.04,0.1 -0.03,0.16 l 0.67,4.43 c 0.06,0.37 0.07,0.67 0.05,0.89 -0.02,0.23 -0.07,0.42 -0.15,0.59 -0.08,0.17 -0.2,0.31 -0.35,0.42 -0.16,0.11 -0.34,0.18 -0.56,0.21 -0.28,0.05 -0.58,-0.01 -0.89,-0.17 -0.32,-0.16 -0.66,-0.41 -1.02,-0.75 l -0.78,-5.16 c -0.01,-0.06 -0.04,-0.1 -0.08,-0.14 -0.04,-0.04 -0.11,-0.07 -0.19,-0.08 -0.09,-0.02 -0.21,-0.02 -0.35,-0.02 -0.14,0.01 -0.32,0.03 -0.53,0.06 -0.22,0.03 -0.39,0.07 -0.53,0.1 -0.13,0.04 -0.24,0.08 -0.32,0.12 -0.08,0.04 -0.14,0.09 -0.16,0.13 -0.03,0.05 -0.04,0.11 -0.03,0.16 l 1.17,7.76 c 0.01,0.05 0.03,0.1 0.07,0.14 0.03,0.04 0.09,0.07 0.17,0.09 0.08,0.01 0.18,0.02 0.3,0.02 0.12,-0.01 0.27,-0.02 0.45,-0.05 0.19,-0.03 0.34,-0.06 0.46,-0.09 0.12,-0.03 0.21,-0.07 0.27,-0.11 0.07,-0.04 0.11,-0.08 0.13,-0.13 0.02,-0.05 0.03,-0.1 0.02,-0.16 l -0.14,-0.89 c 0.5,0.4 0.99,0.68 1.47,0.84 0.48,0.17 0.96,0.21 1.44,0.14 0.53,-0.08 0.96,-0.24 1.29,-0.46 0.34,-0.23 0.6,-0.51 0.77,-0.85 0.18,-0.33 0.29,-0.7 0.33,-1.12 0.04,-0.41 0.01,-0.9 -0.07,-1.46 z m 12.35,-1.2 c -0.02,-0.17 -0.05,-0.31 -0.09,-0.43 -0.03,-0.12 -0.06,-0.21 -0.11,-0.29 -0.04,-0.07 -0.08,-0.12 -0.13,-0.15 -0.05,-0.03 -0.1,-0.04 -0.16,-0.03 l -5.15,0.78 c -0.19,0.03 -0.35,0.11 -0.46,0.25 -0.11,0.13 -0.15,0.32 -0.11,0.58 l 1.55,10.21 c 0.01,0.06 0.03,0.1 0.08,0.14 0.04,0.05 0.11,0.07 0.2,0.09 0.09,0.02 0.21,0.02 0.36,0.02 0.15,-0.01 0.34,-0.03 0.56,-0.06 0.23,-0.04 0.41,-0.07 0.55,-0.11 0.14,-0.04 0.26,-0.08 0.34,-0.12 0.08,-0.05 0.14,-0.09 0.17,-0.15 0.03,-0.05 0.04,-0.1 0.03,-0.16 l -1.37,-9.05 3.54,-0.53 c 0.05,-0.01 0.1,-0.04 0.14,-0.07 0.04,-0.04 0.07,-0.1 0.09,-0.18 0.01,-0.07 0.02,-0.17 0.02,-0.29 -0.01,-0.12 -0.02,-0.27 -0.05,-0.45 z m 9.13,-0.61 c -0.02,-0.15 -0.04,-0.27 -0.07,-0.37 -0.02,-0.1 -0.05,-0.19 -0.08,-0.26 -0.03,-0.07 -0.06,-0.13 -0.1,-0.17 -0.03,-0.05 -0.09,-0.1 -0.16,-0.16 -0.07,-0.06 -0.21,-0.12 -0.41,-0.2 -0.2,-0.08 -0.44,-0.14 -0.71,-0.2 -0.28,-0.05 -0.6,-0.09 -0.94,-0.1 -0.35,-0.01 -0.72,0.01 -1.12,0.07 -0.77,0.12 -1.45,0.34 -2.03,0.67 -0.58,0.33 -1.06,0.77 -1.42,1.31 -0.36,0.53 -0.61,1.17 -0.73,1.92 -0.13,0.74 -0.12,1.58 0.03,2.52 0.14,0.95 0.4,1.78 0.76,2.49 0.37,0.7 0.82,1.27 1.36,1.7 0.53,0.44 1.14,0.74 1.82,0.9 0.68,0.16 1.4,0.19 2.17,0.07 0.32,-0.05 0.61,-0.12 0.89,-0.22 0.29,-0.09 0.54,-0.2 0.78,-0.32 0.23,-0.12 0.44,-0.25 0.62,-0.39 0.18,-0.14 0.3,-0.26 0.37,-0.35 0.06,-0.09 0.11,-0.16 0.13,-0.22 0.02,-0.06 0.03,-0.13 0.04,-0.21 0,-0.08 0,-0.18 -0.01,-0.29 0,-0.11 -0.02,-0.25 -0.05,-0.41 -0.02,-0.18 -0.05,-0.32 -0.08,-0.44 -0.03,-0.12 -0.06,-0.22 -0.11,-0.29 -0.04,-0.07 -0.08,-0.12 -0.12,-0.15 -0.05,-0.03 -0.1,-0.04 -0.15,-0.03 -0.09,0.01 -0.19,0.08 -0.31,0.2 -0.12,0.12 -0.27,0.26 -0.46,0.42 -0.2,0.16 -0.43,0.31 -0.71,0.45 -0.28,0.15 -0.62,0.25 -1.02,0.31 -0.45,0.07 -0.86,0.04 -1.24,-0.09 -0.38,-0.13 -0.72,-0.34 -1.01,-0.64 -0.3,-0.31 -0.55,-0.69 -0.75,-1.15 -0.2,-0.46 -0.35,-0.99 -0.44,-1.6 -0.1,-0.66 -0.12,-1.24 -0.05,-1.74 0.06,-0.51 0.19,-0.93 0.4,-1.29 0.2,-0.35 0.47,-0.63 0.8,-0.83 0.34,-0.21 0.73,-0.35 1.17,-0.42 0.41,-0.06 0.77,-0.06 1.08,-0.01 0.31,0.05 0.58,0.12 0.8,0.2 0.23,0.08 0.42,0.16 0.57,0.23 0.15,0.08 0.27,0.11 0.34,0.09 0.06,0 0.1,-0.02 0.13,-0.05 0.04,-0.03 0.06,-0.08 0.07,-0.15 0.01,-0.08 0.02,-0.18 0.01,-0.3 -0.01,-0.13 -0.03,-0.3 -0.06,-0.5 z m 12.59,2.23 c -0.14,-0.93 -0.38,-1.75 -0.73,-2.45 -0.34,-0.7 -0.78,-1.27 -1.31,-1.72 -0.54,-0.44 -1.16,-0.75 -1.88,-0.91 -0.72,-0.17 -1.52,-0.19 -2.4,-0.05 -0.88,0.13 -1.62,0.36 -2.24,0.69 -0.62,0.33 -1.11,0.76 -1.47,1.29 -0.36,0.54 -0.6,1.18 -0.71,1.94 -0.11,0.76 -0.08,1.63 0.07,2.62 0.13,0.91 0.37,1.71 0.72,2.4 0.34,0.7 0.78,1.26 1.31,1.7 0.54,0.44 1.16,0.75 1.88,0.92 0.71,0.17 1.52,0.19 2.41,0.05 0.85,-0.13 1.59,-0.36 2.2,-0.68 0.62,-0.32 1.11,-0.76 1.48,-1.29 0.37,-0.54 0.61,-1.18 0.72,-1.93 0.12,-0.75 0.1,-1.61 -0.05,-2.58 z m -2.42,0.24 c 0.09,0.59 0.13,1.14 0.11,1.63 -0.02,0.5 -0.11,0.94 -0.28,1.32 -0.18,0.38 -0.43,0.69 -0.77,0.93 -0.35,0.25 -0.8,0.41 -1.35,0.5 -0.56,0.08 -1.05,0.05 -1.46,-0.11 -0.41,-0.15 -0.75,-0.39 -1.04,-0.71 -0.28,-0.32 -0.51,-0.7 -0.68,-1.16 -0.16,-0.46 -0.29,-0.95 -0.37,-1.48 -0.09,-0.61 -0.13,-1.17 -0.11,-1.67 0.02,-0.51 0.11,-0.95 0.28,-1.33 0.17,-0.38 0.42,-0.69 0.76,-0.93 0.35,-0.24 0.8,-0.4 1.36,-0.49 0.56,-0.08 1.05,-0.05 1.46,0.1 0.41,0.15 0.75,0.39 1.04,0.72 0.29,0.32 0.51,0.71 0.68,1.18 0.17,0.46 0.29,0.96 0.37,1.5 z m 10.1,-6.38 c -0.03,-0.16 -0.05,-0.3 -0.09,-0.41 -0.03,-0.11 -0.06,-0.2 -0.1,-0.27 -0.04,-0.06 -0.09,-0.11 -0.13,-0.13 -0.05,-0.03 -0.1,-0.04 -0.15,-0.03 l -5.65,0.86 c -0.19,0.03 -0.35,0.11 -0.46,0.24 -0.11,0.13 -0.15,0.33 -0.11,0.58 l 1.48,9.8 c 0.04,0.26 0.14,0.43 0.28,0.53 0.15,0.09 0.32,0.12 0.51,0.09 l 5.62,-0.85 c 0.05,-0.01 0.09,-0.03 0.13,-0.06 0.03,-0.04 0.06,-0.09 0.08,-0.17 0.02,-0.08 0.02,-0.17 0.02,-0.29 0,-0.11 -0.02,-0.26 -0.04,-0.43 -0.03,-0.16 -0.05,-0.3 -0.09,-0.41 -0.03,-0.11 -0.06,-0.2 -0.1,-0.27 -0.04,-0.06 -0.08,-0.11 -0.13,-0.13 -0.05,-0.03 -0.09,-0.04 -0.15,-0.03 l -4.01,0.61 -0.42,-2.75 3.4,-0.51 c 0.05,-0.01 0.1,-0.03 0.14,-0.07 0.04,-0.04 0.06,-0.09 0.08,-0.17 0.02,-0.07 0.03,-0.16 0.03,-0.27 -0.01,-0.12 -0.02,-0.26 -0.04,-0.42 -0.03,-0.17 -0.06,-0.31 -0.09,-0.41 -0.03,-0.11 -0.06,-0.2 -0.1,-0.26 -0.04,-0.06 -0.09,-0.1 -0.13,-0.13 -0.05,-0.02 -0.1,-0.03 -0.15,-0.02 l -3.4,0.52 -0.48,-3.17 4.05,-0.62 c 0.05,-0.01 0.09,-0.03 0.13,-0.07 0.04,-0.04 0.07,-0.09 0.09,-0.17 0.02,-0.07 0.02,-0.17 0.02,-0.28 0,-0.12 -0.01,-0.26 -0.04,-0.43 z"
             style="fill:#bfbfbf;fill-opacity:1;fill-rule:nonzero;stroke:none"
             id="path1689"
             inkscape:connector-curvature="0" />
        </g>
      </g>
    </g>
  </g>
</svg>
